<svg xmlns="http://www.w3.org/2000/svg" xmlns:xlink="http://www.w3.org/1999/xlink" viewBox="0 0 635.547 592.707">
  <defs>
    <style>
      .cls-1 {
        fill: #43edc4;
      }

      .cls-2 {
        fill: #43dcb7;
      }

      .cls-3 {
        fill: #cecece;
      }

      .cls-4 {
        fill: silver;
      }

      .cls-5 {
        fill: #49e278;
      }

      .cls-6 {
        fill: #48d273;
      }

      .cls-7 {
        fill: #444;
      }

      .cls-8 {
        fill: #4cd673;
      }

      .cls-9 {
        fill: #fff;
      }

      .cls-10 {
        fill: #f9e63a;
      }

      .cls-11 {
        fill: #dece3b;
      }

      .cls-12 {
        fill: #f24040;
      }

      .cls-13 {
        clip-path: url(#clip-path);
      }

      .cls-14 {
        fill: #f7af3c;
      }

      .cls-15 {
        fill: #dc9f3d;
      }

      .cls-16 {
        fill: #ececec;
      }

      .cls-17 {
        fill: #48c46e;
      }

      .cls-18 {
        fill: #e7d53b;
      }

      .cls-19 {
        fill: #e04040;
      }

      .cls-20 {
        fill: #e14040;
      }
    </style>
    <clipPath id="clip-path">
      <path id="Path_1700" data-name="Path 1700" d="M604.3,315.4a23.877,23.877,0,0,1-14.139,4.186h-.744A30.323,30.323,0,0,1,575,315.958a19.712,19.712,0,0,0,14.232,5.953h1.3A19.664,19.664,0,0,0,604.3,315.4" transform="translate(-575 -315.4)"/>
    </clipPath>
  </defs>
  <g id="Group_227" data-name="Group 227" transform="translate(0.056)">
    <path id="Path_1670" data-name="Path 1670" class="cls-1" d="M517,496.6a166.211,166.211,0,0,0,4.279,33.858c2.511,11.162,6.511,21.766,10.883,32.277,8.372,19.813,20.185,37.672,33.765,54.322,3.163,3.907,9.395,5.953,14.232,5.953a19.988,19.988,0,0,0,14.232-5.953,20.38,20.38,0,0,0,5.953-14.232c0-5.767-2.418-9.953-5.953-14.232-1.3-1.581-2.511-3.07-3.721-4.651,1.023,1.4,2.139,2.7,3.163,4.093a208.3,208.3,0,0,1-26.882-45.579c.651,1.581,1.4,3.256,2.046,4.837A157.577,157.577,0,0,1,557.834,507.2c.279,1.767.465,3.535.744,5.4a129.257,129.257,0,0,1-1.209-15.813A20.409,20.409,0,0,0,537.184,476.6c-10.883-.186-20.464,9.023-20.185,20" transform="translate(-36.104 -33.279)"/>
    <path id="Path_1671" data-name="Path 1671" class="cls-1" d="M593.6,496.6a166.2,166.2,0,0,0,4.279,33.858c2.511,11.162,6.511,21.766,10.883,32.277,8.372,19.813,20.185,37.672,33.765,54.322,3.163,3.907,9.395,5.953,14.232,5.953a19.988,19.988,0,0,0,14.232-5.953,20.38,20.38,0,0,0,5.953-14.232c0-5.767-2.418-9.953-5.953-14.232-1.3-1.581-2.511-3.07-3.721-4.651,1.023,1.4,2.139,2.7,3.163,4.093a208.294,208.294,0,0,1-26.882-45.579c.651,1.581,1.4,3.256,2.046,4.837A157.574,157.574,0,0,1,634.434,507.2c.279,1.767.465,3.535.744,5.4a129.257,129.257,0,0,1-1.209-15.813A20.409,20.409,0,0,0,613.784,476.6c-10.883-.186-20.464,9.023-20.185,20" transform="translate(-41.452 -33.279)"/>
    <path id="Path_1672" data-name="Path 1672" class="cls-2" d="M517.2,503.8a186.253,186.253,0,0,0,4,28.649c2.511,11.162,6.511,21.766,10.883,32.277,8.372,19.813,20.185,37.672,33.765,54.322,3.163,3.907,9.395,5.953,14.232,5.953a19.988,19.988,0,0,0,14.232-5.953,20.38,20.38,0,0,0,5.953-14.232c0-5.767-2.418-9.953-5.953-14.232l-2.232-2.791a211.508,211.508,0,0,1-24.091-40.742,167.259,167.259,0,0,1-9.953-35.44c-.279-2.232-.465-4.558-.651-6.883H517.2a1.081,1.081,0,0,0,0-.93" transform="translate(-36.118 -35.178)"/>
    <path id="Path_1673" data-name="Path 1673" class="cls-2" d="M634.17,503.9H593.8a174.635,174.635,0,0,0,4,27.719c2.511,11.162,6.511,21.766,10.883,32.277,8.372,19.813,20.185,37.672,33.765,54.322,3.163,3.907,9.395,5.953,14.232,5.953a19.988,19.988,0,0,0,14.232-5.953,20.38,20.38,0,0,0,5.953-14.232c0-5.767-2.418-9.953-5.953-14.232l-2.232-2.791a211.51,211.51,0,0,1-24.092-40.742,162.373,162.373,0,0,1-9.86-35.347l-.558-6.976m-.837-10.7c.186,2.977.465,6.046.744,9.023-.093-1.488-.093-2.884-.186-4.372a18.736,18.736,0,0,0-.558-4.651" transform="translate(-41.467 -34.438)"/>
    <path id="Path_1674" data-name="Path 1674" class="cls-3" d="M253.225,248.312H380.007c28.463,0,52.09-22.882,52.09-51.439v-.279c0-28.463-23.626-50.694-52.09-50.694H253.225c-28.463,0-51.625,51.067-51.625,51.067s23.161,51.346,51.625,51.346" transform="translate(-14.081 -10.188)"/>
    <path id="Path_1675" data-name="Path 1675" class="cls-4" d="M398.765,225.1c-25.673,12.929-68.833,25.859-141.665,28.742H383.883a52.816,52.816,0,0,0,14.883-2.139V225.1" transform="translate(-17.956 -15.718)"/>
    <path id="Path_1676" data-name="Path 1676" class="cls-5" d="M13.857,483.563a57.015,57.015,0,0,1,8.837,5.3c-1.4-1.023-2.7-2.139-4.093-3.163a48.135,48.135,0,0,1,8.186,8.093c-1.023-1.4-2.139-2.7-3.163-4.093a52.371,52.371,0,0,1,6.325,11.069c-.651-1.581-1.4-3.256-2.046-4.837a73.186,73.186,0,0,1,4.651,17.859c-.279-1.767-.465-3.535-.744-5.4,2.046,15.348.651,30.975-1.4,46.23.279-1.767.465-3.535.744-5.395-2.232,16.278-5.488,32.37-7.72,48.555-.279,1.767-.465,3.535-.744,5.4a19.347,19.347,0,0,0,2.791,10.139,20.313,20.313,0,0,0,12.092,9.3,20.585,20.585,0,0,0,15.534-2.046c4-2.325,8.558-7.162,9.3-12.092,2.791-20,6.79-39.718,9.209-59.717A205.06,205.06,0,0,0,73.2,520.491c-.279-10.139-1.4-20.65-4.465-30.417-5.488-17.766-17.394-33.486-34.416-41.579-5.023-2.418-9.953-3.535-15.534-2.046A20.234,20.234,0,0,0,4.648,471.285c1.209,4.93,4.744,10.139,9.209,12.278" transform="translate(-0.28 -31.127)"/>
    <path id="Path_1677" data-name="Path 1677" class="cls-5" d="M163.512,608.686c2.791-20,6.79-39.718,9.209-59.717a205.059,205.059,0,0,0,1.581-28.277c-.279-10.139-1.4-20.65-4.465-30.417-5.488-17.766-17.394-33.486-34.416-41.579-5.023-2.418-9.953-3.535-15.534-2.046a20.234,20.234,0,0,0-14.139,24.836c1.3,4.651,4.744,9.86,9.3,12.092a57.02,57.02,0,0,1,8.837,5.3c-1.4-1.023-2.7-2.139-4.093-3.163a48.137,48.137,0,0,1,8.186,8.093c-1.023-1.4-2.139-2.7-3.163-4.093a52.371,52.371,0,0,1,6.325,11.069c-.651-1.581-1.4-3.256-2.046-4.837a73.186,73.186,0,0,1,4.651,17.859c-.279-1.767-.465-3.535-.744-5.4,2.046,15.348.651,30.975-1.4,46.23.279-1.767.465-3.535.744-5.395-2.232,16.278-5.488,32.37-7.72,48.555-.279,1.767-.465,3.535-.744,5.395a19.347,19.347,0,0,0,2.791,10.139,20.313,20.313,0,0,0,12.092,9.3,20.585,20.585,0,0,0,15.534-2.046c3.907-2.232,8.558-7.069,9.209-11.906" transform="translate(-7.34 -31.141)"/>
    <path id="Path_1678" data-name="Path 1678" class="cls-6" d="M4.179,463.9a23.824,23.824,0,0,0-.279,3.628,22.807,22.807,0,0,0,.186,2.511c.093-.558.093-1.023.186-1.581V463.9" transform="translate(-0.276 -32.392)"/>
    <path id="Path_1679" data-name="Path 1679" class="cls-6" d="M67,486.7H15.1a54.872,54.872,0,0,1,6.418,3.721A46.434,46.434,0,0,1,25.8,494.7a56.092,56.092,0,0,1,3.721,6.511,71.415,71.415,0,0,1,3.349,13.115,123.829,123.829,0,0,1,.651,13.115A222.412,222.412,0,0,1,31.564,554.7c-2.232,15.441-5.3,30.7-7.441,46.137-.279,1.767-.465,3.535-.744,5.395a19.347,19.347,0,0,0,2.791,10.139,20.313,20.313,0,0,0,12.092,9.3,20.828,20.828,0,0,0,5.3.744A20.162,20.162,0,0,0,53.8,623.622c4-2.325,8.558-7.162,9.3-12.092,2.791-20,6.79-39.718,9.209-59.717a219.505,219.505,0,0,0,1.581-24.743v-3.535c-.279-10.139-1.4-20.65-4.465-30.417-.744-2.139-1.488-4.279-2.418-6.418" transform="translate(-1.058 -33.984)"/>
    <path id="Path_1680" data-name="Path 1680" class="cls-6" d="M153.221,462.1v22.975H116.2a54.871,54.871,0,0,1,6.418,3.721,46.443,46.443,0,0,1,4.279,4.279,56.091,56.091,0,0,1,3.721,6.511,71.414,71.414,0,0,1,3.349,13.115,123.834,123.834,0,0,1,.651,13.115,222.409,222.409,0,0,1-1.953,27.254c-2.232,15.441-5.3,30.7-7.348,46.044-.279,1.767-.465,3.535-.744,5.395a19.347,19.347,0,0,0,2.791,10.139,20.313,20.313,0,0,0,12.092,9.3,20.83,20.83,0,0,0,5.3.744,20.163,20.163,0,0,0,10.232-2.79c4-2.325,8.558-7.162,9.3-12.092,2.791-20,6.79-39.718,9.209-59.717a219.5,219.5,0,0,0,1.581-24.743v-3.535c-.279-10.139-1.4-20.65-4.465-30.417a72.8,72.8,0,0,0-17.394-29.3" transform="translate(-8.118 -32.267)"/>
    <path id="Path_1681" data-name="Path 1681" class="cls-5" d="M145.4,127.577A32.354,32.354,0,0,0,113.123,95.3H36.477A32.354,32.354,0,0,0,4.2,127.577V459.37H145.4V127.577" transform="translate(-0.297 -6.654)"/>
    <path id="Path_1682" data-name="Path 1682" class="cls-7" d="M119.316,193.776h4.372v4.279a27.286,27.286,0,0,1,6.511,1.023c.186-.279.372-.651.558-.93h-4v-4.372h4.372v3.535a10.7,10.7,0,0,0,.744-3.814,10.811,10.811,0,0,0-.744-3.907v1.116h-4.372v-4.372h2.418a10.887,10.887,0,0,0-5.4-3.349v.279h-4.465V182.8a10.311,10.311,0,0,0-6.325,3.535h3.256v4.372h-4.372V187.73A10.939,10.939,0,0,0,110.2,193.4a10.062,10.062,0,0,0,1.86,5.953,27.184,27.184,0,0,1,7.162-1.4v-4.186Zm0-7.441h4.372v4.372h-4.372Zm-3.07,11.813h-4.372v-4.372h4.372Z" transform="translate(-7.699 -12.764)"/>
    <path id="Path_1683" data-name="Path 1683" class="cls-7" d="M53.616,193.776h4.372v4.279a27.286,27.286,0,0,1,6.511,1.023c.186-.279.372-.651.558-.93h-4v-4.372h4.372v3.535a10.7,10.7,0,0,0,.744-3.814,10.811,10.811,0,0,0-.744-3.907v1.116H61.057v-4.372h2.418a10.887,10.887,0,0,0-5.4-3.349v.279H53.709V182.8a10.311,10.311,0,0,0-6.325,3.535h3.163v4.372H46.174V187.73A10.939,10.939,0,0,0,44.5,193.4a10.062,10.062,0,0,0,1.86,5.953,27.162,27.162,0,0,1,7.255-1.4Zm0-7.441h4.372v4.372H53.616Zm-3.07,11.813H46.174v-4.372h4.372Z" transform="translate(-3.111 -12.764)"/>
    <path id="Path_1684" data-name="Path 1684" class="cls-8" d="M70.8,257.2c4.372,4.837,9.581,7.627,15.162,7.627,5.116,0,9.953-2.325,14.046-6.511C94.985,261.2,90.613,262.5,86.52,262.5c-5.116.093-10.046-1.953-15.72-5.3" transform="translate(-4.948 -17.959)"/>
    <path id="Path_1685" data-name="Path 1685" class="cls-9" d="M47.9,220.2a24.967,24.967,0,0,0,2.232,10.418h60.182v2.232H51.249c5.86,10.418,18.7,17.766,33.579,17.766,20.371,0,36.928-13.581,36.928-30.324Z" transform="translate(-3.349 -15.376)"/>
    <path id="Path_1686" data-name="Path 1686" class="cls-10" d="M115.5,236.764l-4.093-2.139-4,2.232.651-4.558-3.256-3.163,4.465-.651,2.046-4.186,2.046,4.093,4.558.651-3.256,3.163Z" transform="translate(-7.322 -15.662)"/>
    <path id="Path_1687" data-name="Path 1687" class="cls-7" d="M129.569,174.258l-33.114-.186a6.473,6.473,0,0,0-6.6,6.418v.093c-4.651-2.7-9.953-2.511-14.79-.093a6.55,6.55,0,0,0-6.6-6.511l-33.114-.186a6.449,6.449,0,0,0-4.837,2.046A61.625,61.625,0,0,0,13.67,172.4c-3.814-.186-7.813.279-10.883,2.7-3.442,2.7-3.163,7.534-2.232,11.255.558,2.325,4.186,1.4,3.628-1.023-.744-3.07-.93-6.418,2.046-8.186,2.791-1.581,6.6-1.3,9.674-1.023A54.653,54.653,0,0,1,28.738,179a3.955,3.955,0,0,0-.186,1.023l-.093,19.534a6.79,6.79,0,0,0,6.7,6.7l33.114.186a6.875,6.875,0,0,0,6.883-6.6l.093-15.441a2.42,2.42,0,0,0,.651-.279c4.651-2.791,9.488-2.7,13.86.651l.093.093-.093,14.976a6.631,6.631,0,0,0,6.511,6.7l33.114.186a6.473,6.473,0,0,0,6.418-6.6l.093-19.534a6.16,6.16,0,0,0-6.325-6.325M70.6,200.116a2.383,2.383,0,0,1-2.418,2.325l-33.114-.186a2.383,2.383,0,0,1-2.325-2.418l.093-19.72a2.383,2.383,0,0,1,2.418-2.325l33.114.186a2.383,2.383,0,0,1,2.325,2.418l-.093,19.72m61.205.279a2.383,2.383,0,0,1-2.418,2.325l-33.114-.186a2.325,2.325,0,0,1-2.325-2.418l.093-19.72a2.383,2.383,0,0,1,2.418-2.325l33.114.186a2.325,2.325,0,0,1,2.325,2.418L131.8,200.4" transform="translate(0 -12.035)"/>
    <path id="Path_1688" data-name="Path 1688" class="cls-10" d="M99.057,389.687a12.278,12.278,0,1,1-24.557,0V313.971c0-6.79,12.278-12.371,12.278-12.371s12.278,5.488,12.278,12.371v75.716" transform="translate(-5.206 -21.06)"/>
    <path id="Path_1689" data-name="Path 1689" class="cls-10" d="M98.878,289.9a4,4,0,0,1,0,5.395L89.2,304.972A3.766,3.766,0,0,1,84,304.879L74.321,295.2a3.65,3.65,0,0,1,0-5.116L84,280.415a3.679,3.679,0,0,1,5.209-.093l9.674,9.581" transform="translate(-5.12 -19.501)"/>
    <path id="Path_1690" data-name="Path 1690" class="cls-11" d="M89.765,280.2c7.255,13.86-8.465,21.394-8.465,21.394l3.256,3.256a3.938,3.938,0,0,0,2.791,1.116,3.594,3.594,0,0,0,2.511-1.023l9.674-9.674a3.64,3.64,0,0,0,1.023-2.7,4.053,4.053,0,0,0-1.023-2.7L89.765,280.2" transform="translate(-5.681 -19.565)"/>
    <path id="Path_1691" data-name="Path 1691" class="cls-1" d="M636.146,407.417c8.093-30.045,17.487-57.857,20.65-88.739,0-1.767-.465-3.628,0-5.395a39.545,39.545,0,0,0,.465-7.162,170.874,170.874,0,0,0-.93-37.672c-2.232-12.092-7.162-21.952-14.325-31.812-2.232-2.7-4.465-4.93-6.7-7.627a45.649,45.649,0,0,0-5.395-4.465,68.587,68.587,0,0,0-12.092-8.093,57.965,57.965,0,0,0-21.487-6.7c-3.163,0-6.232-.93-9.395-.465s-6.7.465-9.86,1.3a53.618,53.618,0,0,0-11.627,4c-13.86,7.162-22.417,21.487-22.882,37.207,0,6.232.93,12.092,1.767,18.417.93,8.93.465,17.487,0,25.952-2.232,25.115-9.86,48-17.022,72.181-8.558,29.58-13.86,58.694-13.022,89.2.465,8.837.465,17.673,3.07,26.51H628.8c-3.349-25.766-.186-51.253,7.348-76.646" transform="translate(-35.909 -14.605)"/>
    <path id="Path_1692" data-name="Path 1692" class="cls-7" d="M552.686,264.4a10.3,10.3,0,0,0-.186,1.767,8.6,8.6,0,0,0,.372,2.7,22.037,22.037,0,0,1,3.349-.837Z" transform="translate(-38.583 -18.462)"/>
    <path id="Path_1693" data-name="Path 1693" class="cls-7" d="M573.906,265.425A10.3,10.3,0,0,0,563.581,255.1c-.558,0-1.116.093-1.581.093l11.813,11.813A8.511,8.511,0,0,0,573.906,265.425Z" transform="translate(-39.246 -17.813)"/>
    <path id="Path_1694" data-name="Path 1694" class="cls-7" d="M568.16,267.311,557.649,256.8a9.619,9.619,0,0,0-3.349,3.349l6.7,6.7h1.488A23.015,23.015,0,0,1,568.16,267.311Z" transform="translate(-38.708 -17.931)"/>
    <path id="Path_1695" data-name="Path 1695" class="cls-7" d="M603.386,264.4a10.3,10.3,0,0,0-.186,1.767,8.6,8.6,0,0,0,.372,2.7,22.036,22.036,0,0,1,3.349-.837Z" transform="translate(-42.123 -18.462)"/>
    <path id="Path_1696" data-name="Path 1696" class="cls-7" d="M624.706,265.425A10.3,10.3,0,0,0,614.381,255.1c-.558,0-1.116.093-1.581.093l11.813,11.813C624.613,266.541,624.706,265.983,624.706,265.425Z" transform="translate(-42.793 -17.813)"/>
    <path id="Path_1697" data-name="Path 1697" class="cls-7" d="M618.86,267.311,608.349,256.8A9.618,9.618,0,0,0,605,260.149l6.7,6.7h1.488A23.014,23.014,0,0,1,618.86,267.311Z" transform="translate(-42.249 -17.931)"/>
    <path id="Path_1698" data-name="Path 1698" class="cls-7" d="M619.27,280.5c0,14.883-14.7,26.975-32.835,26.975S553.6,295.383,553.6,280.5Z" transform="translate(-38.66 -19.586)"/>
    <path id="Path_1699" data-name="Path 1699" class="cls-12" d="M588.413,307.873c12.65,0,23.626-5.86,29.114-14.511A21.092,21.092,0,0,0,580.6,307.036,34.7,34.7,0,0,0,588.413,307.873Z" transform="translate(-40.545 -19.984)"/>
    <g id="Group_226" data-name="Group 226" transform="translate(534.846 293.377)">
      <g id="Group_225" data-name="Group 225" class="cls-13">
        <rect id="Rectangle_83" data-name="Rectangle 83" class="cls-2" width="29.207" height="6.511" transform="translate(0.093)"/>
      </g>
    </g>
    <path id="Path_1701" data-name="Path 1701" class="cls-14" d="M320.02,486.579h-.744l-49.392-.279H269.7a6.54,6.54,0,0,0-6.232,4.465,6.609,6.609,0,0,0-.279,1.953v.186L263,528.251a6.511,6.511,0,0,0,6.418,6.511h.186a6.511,6.511,0,0,0,6.511-6.418l.186-28.835,37.114.186-.186,28.835a6.511,6.511,0,0,0,6.418,6.511h.186a6.511,6.511,0,0,0,6.511-6.418l.186-35.44a6.611,6.611,0,0,0-6.511-6.6" transform="translate(-18.368 -33.956)"/>
    <path id="Path_1702" data-name="Path 1702" class="cls-15" d="M323.895,487.244a6.042,6.042,0,0,0-2.884-.744h-.465c-14.232.465-19.069,10.883-43.346,12.836,7.628.093,34.7.186,36.928.186h.093l-.093,18.045,13.022.093.186-24.65a6.206,6.206,0,0,0-3.442-5.767" transform="translate(-19.36 -33.97)"/>
    <path id="Path_1703" data-name="Path 1703" class="cls-14" d="M366.532,602.837a14.173,14.173,0,0,1-14.139,14.046l-123.248-.744A14.172,14.172,0,0,1,215.1,602l.372-68.554A14.172,14.172,0,0,1,229.611,519.4l123.248.744A14.173,14.173,0,0,1,366.9,534.283l-.372,68.554" transform="translate(-15.023 -36.268)"/>
    <path id="Path_1704" data-name="Path 1704" class="cls-15" d="M359.363,521.774a13.983,13.983,0,0,0-4.837-1.488,8.516,8.516,0,0,0-1.581-.093l-17.487-.093C335.644,606.513,215,602.048,215,602.048a14.28,14.28,0,0,0,7.627,12.65,13.562,13.562,0,0,0,6.325,1.581l123.248.744a14.084,14.084,0,0,0,12.65-7.72,15.867,15.867,0,0,0,1.581-6.325l.372-68.554a13.582,13.582,0,0,0-7.441-12.65" transform="translate(-15.016 -36.317)"/>
    <path id="Path_1705" data-name="Path 1705" class="cls-16" d="M4.078,470.5a69.343,69.343,0,0,0,.186,14.511V471.523a3.344,3.344,0,0,1-.186-1.023" transform="translate(-0.268 -32.853)"/>
    <path id="Path_1706" data-name="Path 1706" class="cls-17" d="M4.186,468.8c-.093.558-.093,1.023-.186,1.581a4.669,4.669,0,0,0,.186,1.116v-2.7" transform="translate(-0.283 -32.734)"/>
    <path id="Path_1707" data-name="Path 1707" class="cls-6" d="M132.206,178.551c-.558,6.139-1.3,12.464-2.139,18.883a2.406,2.406,0,0,0,2.139-2.325V178.551M113.137,95.3c16.836,8.279,21.859,37.765,19.72,74.228a6.331,6.331,0,0,1,3.442,5.767l-.093,19.534a6.473,6.473,0,0,1-6.418,6.6h-.372c-6.511,43.718-20.464,91.157-35.254,122.132v51.625a12.278,12.278,0,1,1-24.557,0V361.144C41.235,393.607,8.586,407.559,4.4,442.627v16.092a1.18,1.18,0,0,0,.093.558H145.6V132.783h0v-1.116h0v-.837h0v-.465h0v-.186h0c-.186-20.368-15.348-34.879-32.463-34.879h0" transform="translate(-0.311 -6.654)"/>
    <path id="Path_1708" data-name="Path 1708" class="cls-7" d="M142.242,175.1c-.186,2.977-.372,5.953-.651,9.023L141.5,200.68a2.331,2.331,0,0,1-2.139,2.325c-.186,1.4-.372,2.7-.558,4.093h.372a6.473,6.473,0,0,0,6.418-6.6l.093-19.534a6.373,6.373,0,0,0-3.442-5.86" transform="translate(-9.696 -12.227)"/>
    <path id="Path_1709" data-name="Path 1709" class="cls-18" d="M99.05,340.8c-1.488,3.163-2.977,6.139-4.558,8.837A156.712,156.712,0,0,1,74.4,378.379v14.046a12.278,12.278,0,1,0,24.557,0V340.8" transform="translate(-5.199 -23.797)"/>
    <path id="Path_1710" data-name="Path 1710" class="cls-3" d="M449.39,572.8a19.73,19.73,0,0,1-19.72,19.72h-.651A19.73,19.73,0,0,1,409.3,572.8V19.72A19.73,19.73,0,0,1,429.02,0h.651a19.73,19.73,0,0,1,19.72,19.72V572.8" transform="translate(-28.584)"/>
    <path id="Path_1711" data-name="Path 1711" class="cls-3" d="M611.435,154.1H484.653c-28.463,0-51.253-24.371-51.253-52.927V100.9c0-28.463,22.789-52,51.253-52H611.435c28.463,0,51.625,52.462,51.625,52.462S639.992,154.1,611.435,154.1" transform="translate(-30.267 -3.414)"/>
    <path id="Path_1712" data-name="Path 1712" class="cls-4" d="M452.232,21.4Q451.256,42.189,450,61.863a23.286,23.286,0,0,1,2.232-2.046V21.4" transform="translate(-31.426 -1.494)"/>
    <path id="Path_1713" data-name="Path 1713" class="cls-16" d="M409.4,519.225c-.093,21.673,0,38.7,0,49.764V519.225m40-371.325V583.128a19.73,19.73,0,0,1-19.72,19.72h-.651a19.143,19.143,0,0,1-7.348-1.4,18.97,18.97,0,0,0,7.627,1.581c10.883,0,20.092-8.837,20.092-19.72V147.9h0" transform="translate(-28.588 -10.327)"/>
    <path id="Path_1714" data-name="Path 1714" class="cls-4" d="M442.607,139.9C430.98,297.564,415.26,396.721,409.679,462.391c-.186,21.022-.279,40-.279,56.276v64.089c0,7.627,5.116,14.976,12.278,18.138a19.143,19.143,0,0,0,7.348,1.4h.651a19.73,19.73,0,0,0,19.72-19.72V147.341a57.6,57.6,0,0,1-6.79-7.441" transform="translate(-28.591 -9.769)"/>
    <path id="Path_1715" data-name="Path 1715" class="cls-4" d="M451.89,62.7h0c-.744.651-1.488,1.3-2.232,2.046-1.4,24.464-2.977,47.718-4.558,69.856a51.608,51.608,0,0,0,6.79,7.441h0V62.7" transform="translate(-31.083 -4.378)"/>
    <path id="Path_1716" data-name="Path 1716" class="cls-16" d="M486.2,157.969c.465,0,1.209.093,2.232.093a16.485,16.485,0,0,1-2.232-.093M666.654,105.6c-1.674,3.721-24.092,52.462-51.532,52.462,28.463,0,51.625-52.183,51.625-52.183a.72.72,0,0,0-.093-.279" transform="translate(-33.953 -7.374)"/>
    <path id="Path_1717" data-name="Path 1717" class="cls-4" d="M643.9,67.6c3.349,72.368-171.245,86.878-157.851,87.808.744,0,1.488.093,2.232.093H615.06c27.44,0,49.857-48.741,51.532-52.462-1.023-2.325-9.767-21.3-22.7-35.44" transform="translate(-33.891 -4.72)"/>
    <path id="Path_1718" data-name="Path 1718" class="cls-12" d="M595.957,446.587a12.278,12.278,0,1,1-24.557,0V370.871c0-6.79,12.278-12.371,12.278-12.371s12.278,5.488,12.278,12.371v75.716" transform="translate(-39.903 -25.033)"/>
    <path id="Path_1719" data-name="Path 1719" class="cls-12" d="M595.878,346.7a4,4,0,0,1,0,5.395l-9.674,9.674a3.766,3.766,0,0,1-5.209-.093L571.321,352a3.65,3.65,0,0,1,0-5.116L581,337.215a3.679,3.679,0,0,1,5.209-.093l9.674,9.581" transform="translate(-39.824 -23.467)"/>
    <path id="Path_1720" data-name="Path 1720" class="cls-2" d="M578.2,358.494h0l1.116,1.116h0l-1.116-1.116m18.7-6.976a3.934,3.934,0,0,1-.465.651,2.825,2.825,0,0,0,.465-.651M586.665,337.1h0l9.674,9.674a3.275,3.275,0,0,1,.93,1.767,4.634,4.634,0,0,0-.93-1.767l-9.674-9.674" transform="translate(-40.377 -23.538)"/>
    <path id="Path_1721" data-name="Path 1721" class="cls-19" d="M586.748,363.532a2.4,2.4,0,0,1-1.209.744,2.068,2.068,0,0,0,1.209-.744m-5.209-.093a1.668,1.668,0,0,0,.651.465,1.668,1.668,0,0,1-.651-.465M579.4,361.3h0l2.139,2.139L579.4,361.3" transform="translate(-40.461 -25.228)"/>
    <path id="Path_1722" data-name="Path 1722" class="cls-19" d="M586.665,337.1c7.255,13.86-8.465,21.394-8.465,21.394l1.116,1.116,2.139,2.139h0a1.668,1.668,0,0,0,.651.465,4.424,4.424,0,0,0,2.139.651,6.278,6.278,0,0,0,1.3-.186,5.272,5.272,0,0,0,1.209-.744h0l9.674-9.674h0a1.667,1.667,0,0,0,.465-.651,3.982,3.982,0,0,0,.558-2.046,3.164,3.164,0,0,0-.093-.93,4.634,4.634,0,0,0-.93-1.767l-9.767-9.767" transform="translate(-40.377 -23.538)"/>
    <path id="Path_1723" data-name="Path 1723" class="cls-16" d="M667.85,314.8a33.037,33.037,0,0,1-.465,5.86c-.465,1.767,0,3.628,0,5.395h0a109.274,109.274,0,0,0,.465-11.255" transform="translate(-46.59 -21.981)"/>
    <path id="Path_1724" data-name="Path 1724" class="cls-2" d="M642.132,238.7c3.349,65.484-21.58,107.714-49.95,140.363v59.066a12.278,12.278,0,0,1-24.557,0V404.922c-28.184,28.091-53.02,50.694-50.043,81.111H629.017a169.42,169.42,0,0,1-1.3-20.557c0-18.882,3.163-37.486,8.651-56.182,8.093-30.045,17.487-57.857,20.65-88.739,0-1.767-.465-3.628,0-5.395a33.7,33.7,0,0,0,.465-5.86V308c.372-5.209.558-10.325.558-15.441a166.285,166.285,0,0,0-1.488-22.231c-2.325-11.906-7.255-21.766-14.418-31.626" transform="translate(-36.128 -16.667)"/>
    <path id="Path_1725" data-name="Path 1725" class="cls-19" d="M595.95,389.6c-8.092,9.3-16.557,17.859-24.65,25.952v33.207a12.278,12.278,0,0,0,24.557,0V389.6" transform="translate(-39.896 -27.204)"/>
    <path id="Path_1726" data-name="Path 1726" class="cls-12" d="M648.578,216.994l-5.209-2.6.93-1.767a19.832,19.832,0,0,0-8.837-26.789l-.093-.093a20.079,20.079,0,0,0-26.975,8.93l-.93,1.767-5.209-2.6a7.738,7.738,0,1,0-6.883,13.86l5.395,2.7,35.9,17.952,5.116,2.511a7.679,7.679,0,0,0,10.418-3.442,7.914,7.914,0,0,0-3.628-10.418" transform="translate(-41.271 -12.821)"/>
    <path id="Path_1727" data-name="Path 1727" class="cls-20" d="M640.676,189.714a18.989,18.989,0,0,0-5.209-3.721l-.093-.093c11.906,20.092-9.767,32-43.532,11.441h0v.093a7.742,7.742,0,0,0,1.488,8.837,8.261,8.261,0,0,0,2.046,1.488l5.4,2.7,35.9,17.952,5.116,2.511a7.735,7.735,0,0,0,9.023-1.4,8.941,8.941,0,0,0,1.488-2.046,7.761,7.761,0,0,0-1.488-8.93,8.262,8.262,0,0,0-2.046-1.488l-5.209-2.6.93-1.767a20.053,20.053,0,0,0-3.814-22.975" transform="translate(-41.276 -12.981)"/>
  </g>
</svg>
