<svg xmlns="http://www.w3.org/2000/svg" viewBox="0 0 319.8 288.434">
  <defs>
    <style>
      .cls-1 {
        fill: #f2f2f2;
      }

      .cls-2 {
        fill: #f9e63a;
      }

      .cls-3 {
        fill: #e7d63b;
      }

      .cls-4 {
        fill: #444;
      }

      .cls-5 {
        fill: #43edc4;
      }

      .cls-6 {
        fill: #d8d8d8;
      }

      .cls-7 {
        fill: #ededed;
      }

      .cls-8 {
        fill: #c9c9c9;
      }

      .cls-9 {
        fill: #e1e1e1;
      }

      .cls-10 {
        fill: #d7c83c;
      }

      .cls-11 {
        fill: #43dcb7;
      }

      .cls-12 {
        fill: #dcdcdc;
      }

      .cls-13 {
        fill: #bcbcbc;
      }

      .cls-14 {
        fill: #cecece;
      }

      .cls-15 {
        fill: silver;
      }

      .cls-16 {
        fill: #49e278;
      }

      .cls-17 {
        fill: #d2d2d2;
      }

      .cls-18 {
        fill: #b4b4b4;
      }

      .cls-19 {
        fill: #49d373;
      }

      .cls-20 {
        fill: #efb541;
      }

      .cls-21 {
        fill: #e2a944;
      }

      .cls-22 {
        fill: #fff;
      }

      .cls-23 {
        fill: #deaa41;
      }

      .cls-24 {
        fill: #f24040;
      }

      .cls-25 {
        fill: #e14040;
      }

      .cls-26 {
        fill: #d1d1d1;
      }

      .cls-27 {
        fill: #d29f44;
      }

      .cls-28 {
        fill: #dea941;
      }

      .cls-29 {
        fill: #e0e0e0;
      }

      .cls-30 {
        fill: #8e6825;
      }

      .cls-31 {
        fill: #ececec;
      }

      .cls-32 {
        fill: #866428;
      }

      .cls-33 {
        fill: #d6c73c;
      }

      .cls-34 {
        fill: #e04040;
      }

      .cls-35 {
        fill: #ea44cb;
      }

      .cls-36 {
        fill: #b3b3b3;
      }
    </style>
  </defs>
  <g id="Group_33" data-name="Group 33" transform="translate(0)">
    <path id="Path_104" data-name="Path 104" class="cls-1" d="M289.243,261.379c-2.643,8.09-9.692,12.976-15.779,10.973L170.217,238.31c-6.087-2-8.811-10.172-6.168-18.182l66-200.566c2.643-8.09,9.692-12.976,15.779-10.973L349.076,42.55c6.087,2,8.811,10.172,6.168,18.182l-66,200.646" transform="translate(-36.806 -1.62)"/>
    <path id="Path_105" data-name="Path 105" class="cls-2" d="M310.868,164.39q.36,2.523.481,5.046a7.773,7.773,0,0,0-.08-1.362,35.742,35.742,0,0,1-.721,8.731c.08-.481.24-.881.32-1.362a23.648,23.648,0,0,1-2.083,5.607,6.385,6.385,0,0,0,.641-1.282,24.594,24.594,0,0,1-3.6,4.966l.961-.961a38.894,38.894,0,0,1-6.969,5.607,4.925,4.925,0,0,0-1.922,3.6,5.269,5.269,0,0,0,1.121,3.765,5.379,5.379,0,0,0,3.6,1.922,5.8,5.8,0,0,0,3.765-1.121c4.566-2.964,8.891-6.728,11.534-11.534A33.377,33.377,0,0,0,320,181.451a39.965,39.965,0,0,0,1.282-5.126,43.692,43.692,0,0,0,.24-10.733c-.08-.961-.16-1.922-.32-2.884a5.375,5.375,0,0,0-6.087-4.325,5.272,5.272,0,0,0-4.245,6.007" transform="translate(-63.638 -31.507)"/>
    <path id="Path_106" data-name="Path 106" class="cls-3" d="M321.261,177.5l-.24.721c-1.442,3.845-5.367,5.447-10.092,3.685l-1.842-.721-.08.08a26.208,26.208,0,0,1-2.8,3.845,40.617,40.617,0,0,1-6.488,5.126,4.413,4.413,0,0,0-1.6,2.163,4.677,4.677,0,0,0-.32,1.442,5.269,5.269,0,0,0,1.121,3.765,5.04,5.04,0,0,0,2.243,1.6,6.783,6.783,0,0,0,1.362.32,5.8,5.8,0,0,0,3.765-1.121c4.566-2.964,8.891-6.728,11.534-11.534a37.98,37.98,0,0,0,1.922-4.085,1.158,1.158,0,0,0,.16-.561,16.025,16.025,0,0,0,1.362-4.726m-.08-14.1.4,10.893v.721a50.1,50.1,0,0,0-.08-8.49c-.08-.961-.16-1.922-.32-2.884a.15.15,0,0,0,0-.24" transform="translate(-63.618 -32.519)"/>
    <path id="Path_107" data-name="Path 107" class="cls-2" d="M259.656,139.3c-5.126,4.486-9.932,9.932-12.095,16.58a31.745,31.745,0,0,0-.32,17.3,20.057,20.057,0,0,0,.561,2.083,5.762,5.762,0,0,0,2.083,3.364,5.4,5.4,0,0,0,4,.961,5.193,5.193,0,0,0,3.364-2.083,5.492,5.492,0,0,0,.961-4,36.264,36.264,0,0,1-1.522-8.811,7.773,7.773,0,0,0,.08,1.362,23,23,0,0,1,.561-6.168c-.08.481-.24.881-.32,1.362a23.883,23.883,0,0,1,2.163-5.607,6.385,6.385,0,0,0-.641,1.282,34.117,34.117,0,0,1,5.206-7.049l-.961.961a48.431,48.431,0,0,1,3.6-3.444,5.313,5.313,0,0,0,.8-7.369,5.429,5.429,0,0,0-7.529-.721" transform="translate(-53.356 -27.484)"/>
    <path id="Path_108" data-name="Path 108" class="cls-2" d="M301.061,85.309c4.486-4.726,8.33-3.284,8.571,3.2l2.563,69.605c.24,6.488-4.566,9.932-10.653,7.689l-45.336-17.061c-6.087-2.323-7.449-8.01-2.964-12.736l47.819-50.7" transform="translate(-54.231 -16.424)"/>
    <path id="Path_109" data-name="Path 109" class="cls-3" d="M311.924,105.3a3.949,3.949,0,0,1-2.884.24c-2.643,13.457-7.609,33.8-14.9,41.651-7.209,6.087-14.418,4.806-20.585,3.444C267.47,149.354,262.5,148.072,259.7,154l43.654,16.42c4.726,1.762,8.651.08,10.092-3.685a10.131,10.131,0,0,0,.561-3.925l-.961-26.593L294.783,152a.874.874,0,0,1-.961.16,1.751,1.751,0,0,1-.4-.24.874.874,0,0,1-.16-.961,1.751,1.751,0,0,1,.24-.4l19.464-16.821L311.924,105.3" transform="translate(-56.043 -20.957)"/>
    <path id="Path_110" data-name="Path 110" class="cls-4" d="M321.76,119.68c-.08,0-.08-.08-.16-.08.08,0,.08.08.16.08h0" transform="translate(-68.362 -23.802)"/>
    <path id="Path_111" data-name="Path 111" class="cls-4" d="M320.788,115.387a.633.633,0,1,0,.4.8.661.661,0,0,0-.4-.8" transform="translate(-68.031 -22.954)"/>
    <path id="Path_112" data-name="Path 112" class="cls-4" d="M322.2,117.282c.08,0,.16.08.32,0a2.376,2.376,0,0,0-.16-1.282.6.6,0,0,0-.561.4.805.805,0,0,0,.4.881" transform="translate(-68.397 -23.086)"/>
    <path id="Path_113" data-name="Path 113" class="cls-4" d="M320.421,117.993a.6.6,0,0,0-.4-.8.768.768,0,0,0-.721.16,4.817,4.817,0,0,1,1.041.721l.08-.08" transform="translate(-67.904 -23.317)"/>
    <path id="Path_114" data-name="Path 114" class="cls-4" d="M321.486,119.089a.244.244,0,0,0,.32,0,2.4,2.4,0,0,0,.32-.641c0-.08.08-.16.08-.24a.625.625,0,0,0-.32-.32.6.6,0,0,0-.8.4.364.364,0,0,0,0,.4,1.75,1.75,0,0,1,.24.4h.16" transform="translate(-68.248 -23.451)"/>
    <path id="Path_115" data-name="Path 115" class="cls-4" d="M320.9,114.841a.646.646,0,0,0,.721-.24,2.354,2.354,0,0,0-.961-.8c-.08.08-.08.16-.16.24a.7.7,0,0,0,.4.8" transform="translate(-68.138 -22.648)"/>
    <path id="Path_116" data-name="Path 116" class="cls-4" d="M316.481,115.087a.633.633,0,0,0,.4-1.2.364.364,0,0,0-.4,0,1.406,1.406,0,0,0-.4.32l-.08.08a.8.8,0,0,0,.481.8" transform="translate(-67.247 -22.653)"/>
    <path id="Path_117" data-name="Path 117" class="cls-4" d="M318.888,114.687a.633.633,0,1,0,.4.8.661.661,0,0,0-.4-.8" transform="translate(-67.653 -22.815)"/>
    <path id="Path_118" data-name="Path 118" class="cls-4" d="M316.186,115.787a.6.6,0,0,0-.8.4.511.511,0,0,0,0,.481,6.063,6.063,0,0,1,1.2-.08.624.624,0,0,0-.4-.8" transform="translate(-67.113 -23.034)"/>
    <path id="Path_119" data-name="Path 119" class="cls-4" d="M318.621,117.053a.61.61,0,0,0-1.121-.32l.961.24a.248.248,0,0,1,.16.08" transform="translate(-67.546 -23.178)"/>
    <path id="Path_120" data-name="Path 120" class="cls-4" d="M317.9,113.4c-.24.08-.561.16-.8.24h0c.4.08.641,0,.8-.24" transform="translate(-67.466 -22.569)"/>
    <path id="Path_121" data-name="Path 121" class="cls-4" d="M319,114.173a.6.6,0,0,0,.8-.4c0-.08.08-.16,0-.32h0a2.1,2.1,0,0,0-1.2-.16v.08a.7.7,0,0,0,.4.8" transform="translate(-67.76 -22.541)"/>
    <path id="Path_122" data-name="Path 122" class="cls-4" d="M300.5,111.8h.16c-.08,0-.08,0-.16.08v-.08" transform="translate(-64.163 -22.25)"/>
    <path id="Path_123" data-name="Path 123" class="cls-4" d="M303.8,108.995a.633.633,0,1,1-.8.4.661.661,0,0,1,.8-.4" transform="translate(-64.655 -21.688)"/>
    <path id="Path_124" data-name="Path 124" class="cls-4" d="M301.44,109.541c-.08,0-.16-.08-.24-.16a4.59,4.59,0,0,1,.881-.881.623.623,0,0,1,.16.641.553.553,0,0,1-.8.4" transform="translate(-64.302 -21.593)"/>
    <path id="Path_125" data-name="Path 125" class="cls-4" d="M302.28,111.3a.7.7,0,0,1,.8-.4.634.634,0,0,1,.4.641,3.468,3.468,0,0,0-1.282-.08l.08-.16" transform="translate(-64.501 -22.066)"/>
    <path id="Path_126" data-name="Path 126" class="cls-4" d="M300.84,111.387c-.08-.08-.24-.08-.24-.24a2.339,2.339,0,0,1,.16-.721c0-.08.08-.16.08-.24a.511.511,0,0,1,.481,0,.7.7,0,0,1,.4.8,1.106,1.106,0,0,1-.24.32c-.16,0-.32.08-.481.08h-.16" transform="translate(-64.183 -21.917)"/>
    <path id="Path_127" data-name="Path 127" class="cls-4" d="M304,108.626a.634.634,0,0,1-.4-.641,3.44,3.44,0,0,1,1.282,0v.24a.648.648,0,0,1-.881.4" transform="translate(-64.78 -21.479)"/>
    <path id="Path_128" data-name="Path 128" class="cls-4" d="M307.1,111.6a.633.633,0,0,1,.4-1.2,1.106,1.106,0,0,1,.32.24,1.016,1.016,0,0,1,.08.481v.08a.553.553,0,0,1-.8.4" transform="translate(-65.392 -21.966)"/>
    <path id="Path_129" data-name="Path 129" class="cls-4" d="M305.7,109.695a.633.633,0,1,1-.8.4.624.624,0,0,1,.8-.4" transform="translate(-65.033 -21.827)"/>
    <path id="Path_130" data-name="Path 130" class="cls-4" d="M306.921,112.293a.7.7,0,0,1,.4.8.8.8,0,0,1-.32.4,3.8,3.8,0,0,0-.8-.8.546.546,0,0,1,.721-.4" transform="translate(-65.297 -22.343)"/>
    <path id="Path_131" data-name="Path 131" class="cls-4" d="M304.4,111.752a.719.719,0,0,1,.721-.16.526.526,0,0,1,.4.641c-.32-.16-.561-.32-.881-.481h-.24" transform="translate(-64.939 -22.203)"/>
    <path id="Path_132" data-name="Path 132" class="cls-4" d="M307.4,109.4a2.1,2.1,0,0,1,.4.721h0a.956.956,0,0,1-.4-.721" transform="translate(-65.536 -21.772)"/>
    <path id="Path_133" data-name="Path 133" class="cls-4" d="M305.9,109.241a.7.7,0,0,1-.4-.8c0-.08.08-.16.16-.24h0a4.542,4.542,0,0,1,1.041.641v.08a.563.563,0,0,1-.8.32" transform="translate(-65.153 -21.534)"/>
    <path id="Path_134" data-name="Path 134" class="cls-4" d="M298.8,115.6c-1.442,3.845,1.2,8.33,5.847,10.092s9.612.08,11.054-3.765L298.8,115.6" transform="translate(-63.746 -23.006)"/>
    <path id="Path_135" data-name="Path 135" class="cls-5" d="M304.687,126.4a9.216,9.216,0,0,1-6.087-6.568,6.212,6.212,0,0,1,4.806-.32,5.83,5.83,0,0,1,3.444,7.369,10.49,10.49,0,0,1-2.163-.481" transform="translate(-63.785 -23.719)"/>
    <path id="Path_136" data-name="Path 136" class="cls-3" d="M308.229,131.723a5.957,5.957,0,0,1-4-.32c-.08,0-.08-.08-.16-.08A8.808,8.808,0,0,1,300.7,129a5.333,5.333,0,0,0,3.044,2.884.482.482,0,0,0,.32.08,4.534,4.534,0,0,0,4.165-.24" transform="translate(-64.202 -25.673)"/>
    <path id="Path_137" data-name="Path 137" class="cls-6" d="M327.991,88.743a3.834,3.834,0,0,0-.561-3.444c.16-.24.32-.561.481-.8.721-2-.561-4.325-2.964-5.206h-.08a7.8,7.8,0,0,0-4.806-4.726,8.292,8.292,0,0,0-6.808.4c-.16-.08-.24-.08-.4-.16-2.4-.881-4.886,0-5.607,2a4.02,4.02,0,0,0-.16.961,3.589,3.589,0,0,0-2.643,2.243,3.908,3.908,0,0,0,1.362,4.325L303.641,90.1a3.8,3.8,0,0,0,2.243,4.886L317.5,99.316a3.727,3.727,0,0,0,4.886-2.163l2.243-6.007a4.147,4.147,0,0,0,3.364-2.4" transform="translate(-64.74 -14.732)"/>
    <path id="Path_138" data-name="Path 138" class="cls-7" d="M303.64,93.9a5.029,5.029,0,0,0-.24,1.522,5.441,5.441,0,0,1,.24-1.522h0" transform="translate(-64.74 -18.688)"/>
    <path id="Path_139" data-name="Path 139" class="cls-8" d="M324.966,80.6a15.309,15.309,0,0,1-1.2,5.046c-1.2,2.884-3.765,5.767-8.811,4.886-2.563,2.964-4.886,4-7.689,2.964a12.325,12.325,0,0,1-3.524-2.163h0a4.535,4.535,0,0,0-.24,1.442,3.9,3.9,0,0,0,2.483,3.364l11.614,4.325a3.727,3.727,0,0,0,4.886-2.163l2.243-6.007a4.02,4.02,0,0,0,3.364-2.323,3.834,3.834,0,0,0-.561-3.444c.16-.24.32-.561.481-.8.641-1.842-.641-4.165-3.044-5.126" transform="translate(-64.76 -16.041)"/>
    <path id="Path_140" data-name="Path 140" class="cls-6" d="M331.591,130.6a3.441,3.441,0,0,0-4.886-.32l-2.163,1.842c-1.2,1.041-1.041,4.325-1.121,4.405l-21.707,18.743A.965.965,0,1,0,303,156.717L324.7,137.974h.641c.961.08,2.8.08,3.685-.641l2.163-1.842a3.38,3.38,0,0,0,.4-4.886" transform="translate(-64.336 -25.756)"/>
    <path id="Path_141" data-name="Path 141" class="cls-8" d="M336.263,130.76a2.571,2.571,0,0,0-2.563.481,4.83,4.83,0,0,1,1.682.32c2.243.881,1.442,3.284.08,4.886l1.6-1.362a2.643,2.643,0,0,0-.8-4.325" transform="translate(-70.77 -25.992)"/>
    <path id="Path_142" data-name="Path 142" class="cls-8" d="M320.8,144.4,301.82,158.177a.44.44,0,0,0-.24.4.852.852,0,0,0,.16.961.441.441,0,0,0,.4.24.852.852,0,0,0,.961-.16L320.8,144.4" transform="translate(-64.361 -28.738)"/>
    <path id="Path_143" data-name="Path 143" class="cls-9" d="M251.437,8.2c-5.286,0-10.733,4.566-12.976,11.454L204.9,121.539l15.3,46.537c1.442-1.121,2.884-2.243,4.405-3.364a53.056,53.056,0,0,1,55.188.881,5.578,5.578,0,0,1-.4-2v-.481h0v-.08h0a5.039,5.039,0,0,1,1.842-3.284,39.692,39.692,0,0,0,6.488-5.126,26.211,26.211,0,0,0,2.8-3.845h0l.08-.08L248.874,135v.16a23.546,23.546,0,0,0-.4,4.726,35.165,35.165,0,0,0,1.522,8.09,4.847,4.847,0,0,1-.961,4,5.193,5.193,0,0,1-3.364,2.083,3.286,3.286,0,0,1-.881.08,4.9,4.9,0,0,1-3.124-1.041,5.762,5.762,0,0,1-2.083-3.364c-.16-.721-.4-1.362-.561-2.083a31.745,31.745,0,0,1,.32-17.3c2.163-6.648,6.969-12.095,12.095-16.58a2.435,2.435,0,0,1,.561-.4l31.959-33.882a2.217,2.217,0,0,1-.08-.721h0v0a5.03,5.03,0,0,1,.24-1.522h0l2.163-5.767a3.871,3.871,0,0,1-1.362-4.325,3.758,3.758,0,0,1,2.643-2.243,4.018,4.018,0,0,1,.16-.961,3.929,3.929,0,0,1,3.765-2.323,4.7,4.7,0,0,1,1.842.32c.16.08.24.08.4.16a7.313,7.313,0,0,1,3.765-.961,8.477,8.477,0,0,1,3.044.561,7.8,7.8,0,0,1,4.806,4.726h.08a4.547,4.547,0,0,1,3.124,4,3.214,3.214,0,0,1-.24,1.2,1.662,1.662,0,0,1-.481.8,4.252,4.252,0,0,1,.8,2.243,2.559,2.559,0,0,1-.24,1.121,3.916,3.916,0,0,1-3.364,2.323l-2.243,6.007a3.5,3.5,0,0,1-1.842,2l.8,22.027.24,6.248,2.243-1.922c.08-.08-.16-3.284,1.121-4.405l2.163-1.842a3.357,3.357,0,0,1,2.243-.8,3.544,3.544,0,0,1,2.643,1.2,3.441,3.441,0,0,1-.32,4.886l-2.163,1.842a4.82,4.82,0,0,1-2.884.641H305.5l-3.444,2.964h0l.561,15.7v.16c.16.961.24,1.922.32,2.884v.08h0v.08h0v.16h0v.08h0a38.248,38.248,0,0,1,0,8.01,11.662,11.662,0,0,1-.32,2.483,35.13,35.13,0,0,1-1.2,4.806v.16h0v.08h0v.08h0v.08h0a8.683,8.683,0,0,1-.641,1.522h0v.08h0v.08h0v.08h0v.08h0v.08h0v.08h0v.08h0v.08h0v.08h0v.08h0v.08h0l-.961,1.922c-2.643,4.806-6.969,8.571-11.534,11.534a5.742,5.742,0,0,1-3.364,1.2h-.16a54.814,54.814,0,0,1,13.136,14.978,53.843,53.843,0,0,1,7.289,26.913l-1.922,14.177a211.607,211.607,0,0,1-12.015,38.207c-1.282,3.124-2.563,6.248-3.925,9.372,4.486-1.121,8.731-5.286,10.573-11.134l66-200.566a18.817,18.817,0,0,0,1.041-6.168c0-5.687-2.643-10.573-7.129-12.015L254.16,8.6a8.026,8.026,0,0,0-2.723-.4" transform="translate(-45.137 -1.632)"/>
    <path id="Path_144" data-name="Path 144" class="cls-3" d="M297.9,193.917h0m0-.08h0m0,0h0m0,0h0m0,0h0m0-.08h0m0,0h0m0,0h0m0-.08h0m0,0h0m0,0h0m0,0h0m.08-.08h0m0,0h0m1.842-3.284a4.728,4.728,0,0,0-1.842,3.284,5.9,5.9,0,0,1,.32-1.121,3.855,3.855,0,0,1,1.522-2.163m19.143-5.286h0m0-.08h0m.08-.08h0m0-.08h0m.08-.08h0m0-.08h0m.08-.08h0m0-.08h0m0-.08h0m.08,0h0m0-.08h0m.08-.08h0m.641-1.522a.28.28,0,0,1-.08.16c-.16.481-.4.881-.561,1.362.24-.481.4-1.041.641-1.522m0-.08h0m0-.08h0m0-.08h0m.08-.08h0m-9.051-.481h0m-1.842-.641-.08.08.08-.08h0m11.855-3.044h0m0,0h0m0-.08h0m.08,0h0m0-.08h0m0-.08h0m.08-.08h0m.08-.32c0,.16-.08.24-.08.32,0-.08.08-.24.08-.32m0-.08h0m0,0h0a35.13,35.13,0,0,1-1.2,4.806,26.376,26.376,0,0,0,1.2-4.806m.32-10.493a38.246,38.246,0,0,1,0,8.01v-.641h0v.08h0v.08h0v.08h0v.08h0v.4a39.011,39.011,0,0,0,0-8.09m0-.08h0m0-.24v0m0,0h0m0-.08h0m-.4-3.2h0v.16c.08,0,.08-.08,0-.16" transform="translate(-63.645 -32.519)"/>
    <path id="Path_145" data-name="Path 145" class="cls-10" d="M321.587,177.5h0c-.08.16-.08.32-.16.4h0v.08h0v.08h0v.08h0v.08h0v.08h0a6.117,6.117,0,0,1-3.765,3.685h-1.442a11.325,11.325,0,0,1-3.524-.641h-.16l-1.842-.721-.08.08h0a26.212,26.212,0,0,1-2.8,3.845,40.62,40.62,0,0,1-6.488,5.126,4.413,4.413,0,0,0-1.6,2.163,5.9,5.9,0,0,0-.32,1.121h0v.08h0v.481a5.942,5.942,0,0,0,.4,2,48.364,48.364,0,0,1,4.646,3.284h.16a5.94,5.94,0,0,0,3.364-1.2c4.566-2.964,8.891-6.728,11.534-11.534l.961-1.922h0v-.08h0v-.08h0v-.08h0v-.08h0v-.08h0v-.08h0v-.08h0v-.08h0v-.08h0v-.08h0v-.08h0a9.778,9.778,0,0,0,.561-1.362.28.28,0,0,1,.08-.16h0v-.08h0v-.08h0v-.08h0v-.16a17.371,17.371,0,0,1,.481-3.845m-.08-14.1.4,10.893v.721a53.471,53.471,0,0,0,0-8.01h0v-.08h0v-.16h0v-.08h0v-.08c-.08-.961-.16-1.922-.32-2.884,0-.16,0-.24-.08-.32" transform="translate(-63.944 -32.519)"/>
    <path id="Path_146" data-name="Path 146" class="cls-3" d="M260.217,139c-.16.16-.4.24-.561.4-5.126,4.486-9.932,9.932-12.095,16.58a31.745,31.745,0,0,0-.32,17.3,20.059,20.059,0,0,0,.561,2.083,5.762,5.762,0,0,0,2.083,3.364,5.413,5.413,0,0,0,3.124,1.041,3.285,3.285,0,0,0,.881-.08,5.193,5.193,0,0,0,3.364-2.083,5.492,5.492,0,0,0,.961-4,46.459,46.459,0,0,1-1.522-8.09,23.057,23.057,0,0,1,.4-4.726v-.16l-1.762-.641c-6.087-2.323-7.449-8.01-2.964-12.736l7.85-8.25" transform="translate(-53.356 -27.663)"/>
    <path id="Path_147" data-name="Path 147" class="cls-3" d="M305.406,169.349h0m.16,0h0m.08,0h0m.16,0h0m.08,0h0m.16,0h0m0,0h0m.08-.08h0m.08,0h0m.08,0h0m.08,0h0m0,0h0m.08,0h0m.08,0h0m.08,0h0m0,0h0m.08-.08h0m.08,0h0m0,0h0m.08,0h0m0,0h0m.08,0h0m0,0h0m.08,0h0m.08-.08h0m0,0h0m.08,0h0m0,0h0m.08,0h0m0,0h0m.08,0h0m0-.08h0m.08,0h0m0,0h0m.08,0h0m.08,0h0m.08-.08h0m.08,0h0m.08,0h0m3.765-3.765h0m0-.08h0m.08-.08h0m0-.08h0m.641-3.6h0m0-.08h0m0-.08h0m0-.08h0m-.08-.08h0m-.961-26.593-18.262,15.779,18.262-15.779h0m-.32-8.811.24,6.248-19.464,16.821,19.464-16.821-.24-6.248m-15.139.32a6.1,6.1,0,0,1-1.682-.24c-.08,0-.24-.08-.32-.08a5.355,5.355,0,0,1-3.044-2.884,8.808,8.808,0,0,0,3.364,2.323c.08,0,.08.08.16.08a7.6,7.6,0,0,0,2.483.481,12.039,12.039,0,0,0,1.6-.16,7.6,7.6,0,0,1-2.563.481m6.728-13.136a.511.511,0,0,1,0-.481.6.6,0,0,1,.561-.4h.24a.661.661,0,0,1,.4.8h-.24c-.32,0-.641.08-.961.08m1.2-1.041h-.24a.7.7,0,0,1-.4-.8l.08-.08c.16-.08.24-.24.4-.32h.4a.7.7,0,0,1,.4.8.817.817,0,0,1-.641.4m.961-1.682h0a.674.674,0,0,1-.561.32.294.294,0,0,1-.24-.08h0a1.79,1.79,0,0,1,.8-.24m-8.731.32a3.8,3.8,0,0,0-.8-.8.6.6,0,0,1,.561-.4h.24a.7.7,0,0,1,.4.8c-.16.16-.24.32-.4.4m-5.367-1.522v-.08h.16a.248.248,0,0,0-.16.08m4.165.4c-.32-.16-.561-.32-.881-.481-.08,0-.08-.08-.16-.08.08-.16.32-.16.481-.16h.24a.7.7,0,0,1,.32.721m-2.723-.721v-.08a.6.6,0,0,1,.561-.4h.24a.634.634,0,0,1,.4.641,4.567,4.567,0,0,0-1.041-.08c0-.08-.08-.08-.16-.08m4.165.4a.294.294,0,0,1-.24-.08.7.7,0,0,1-.4-.8.6.6,0,0,1,.561-.4h.24a1.106,1.106,0,0,1,.32.24,1.016,1.016,0,0,1,.08.481v.08a.585.585,0,0,1-.561.481m-5.206-.24h-.16c-.08-.08-.24-.08-.24-.24a2.339,2.339,0,0,1,.16-.721c0-.08.08-.16.08-.24.08,0,.16-.08.24-.08h.24a.7.7,0,0,1,.4.8,1.106,1.106,0,0,1-.24.32,1.138,1.138,0,0,1-.481.16m3.685-.32h-.24a.7.7,0,0,1-.4-.8.6.6,0,0,1,.561-.4.294.294,0,0,1,.24.08.7.7,0,0,1,.4.8.674.674,0,0,1-.561.32m1.842-.881h0a.573.573,0,0,1-.4-.721,3.246,3.246,0,0,1,.4.721m-3.364.32h-.24a.7.7,0,0,1-.4-.8.6.6,0,0,1,.561-.4.294.294,0,0,1,.24.08.7.7,0,0,1,.4.8.674.674,0,0,1-.561.32m-1.522-.561a.294.294,0,0,1-.24-.08c-.08,0-.16-.08-.24-.16a4.59,4.59,0,0,1,.881-.881.623.623,0,0,1,.16.641.585.585,0,0,1-.561.481m3.6-.24h-.24a.7.7,0,0,1-.4-.8c0-.08.08-.16.16-.24h0a4.542,4.542,0,0,1,1.041.641v.08a.674.674,0,0,1-.561.32m-1.522-.561a.294.294,0,0,1-.24-.08.634.634,0,0,1-.4-.641,2.6,2.6,0,0,1,1.282,0v.24a.751.751,0,0,1-.641.481m-.721-9.772-31.879,33.882-7.77,8.25c-4.486,4.726-3.124,10.493,2.964,12.736l1.762.641,41.731,15.7h0l1.842.721h.16a9.688,9.688,0,0,0,3.524.641h0a10.3,10.3,0,0,1-3.6-.721l-43.814-16.34c1.6-3.444,3.925-4.405,6.728-4.405a35.474,35.474,0,0,1,7.049,1.121,38.688,38.688,0,0,0,8.25,1.121,18.254,18.254,0,0,0,12.335-4.566c4.486-4.726,8.01-14.177,10.733-23.789a8.869,8.869,0,0,1-4.165.961,9.4,9.4,0,0,1-3.524-.641h-.08c-4.085-2-6.328-6.168-4.966-9.692l14.818,5.607c.4-1.442.721-2.884,1.041-4.325-.08,0-.08,0-.16-.08a2.133,2.133,0,0,0-.961-.24.674.674,0,0,1,.561-.32h.24c.24.08.32.24.4.481.08-.24.08-.481.16-.721h-.4a.7.7,0,0,1-.4-.8.6.6,0,0,1,.561-.4.294.294,0,0,1,.24.08c.08,0,.16.08.24.16,0-.08.08-.24.08-.32h-.24a.7.7,0,0,1-.4-.8v-.08h.08a1.561,1.561,0,0,1,.641.08c.481-2.163.961-4.325,1.282-6.248-.08,0-.16-.08-.24-.08l-11.614-4.325h0c-2-1.121-2.884-2.083-3.2-3.284" transform="translate(-54.251 -19.245)"/>
    <path id="Path_148" data-name="Path 148" class="cls-10" d="M309.361,116.914c0-.08-.08-.08-.08-.16.08,0,.08,0,.08.16h0m.16-.32h-.24l-.08-.08c-.08-.16-.16-.24-.24-.4v-.4a.6.6,0,0,1,.561-.4.294.294,0,0,1,.24.08.625.625,0,0,1,.32.32c0,.08-.08.16-.08.24a4.753,4.753,0,0,1-.32.641h-.16m-1.041-.881a3.048,3.048,0,0,0-1.041-.721.692.692,0,0,1,.481-.24h.24a.7.7,0,0,1,.4.8l-.08.16m1.6-.561h-.24a.7.7,0,0,1-.4-.8.6.6,0,0,1,.561-.4,2.015,2.015,0,0,1,.08,1.2h0m-1.522-.561h-.24a.7.7,0,0,1-.4-.8.6.6,0,0,1,.561-.4h.24a.7.7,0,0,1,.4.8.6.6,0,0,1-.561.4m.481-1.442h-.24a.7.7,0,0,1-.4-.8c0-.08.08-.16.16-.24a3.205,3.205,0,0,1,.961.8.692.692,0,0,1-.481.24m2.884-7.85a4,4,0,0,1-1.682.4,6.183,6.183,0,0,1-1.2-.16c-.4,1.922-.8,4.085-1.282,6.248.16,0,.24.08.4.08h0v.32a.6.6,0,0,1-.561.4c0,.08-.08.24-.08.32a.719.719,0,0,1,.16.721.965.965,0,0,1-.4.4c-.08.24-.08.481-.16.721v.16h-.08c-.32,1.442-.721,2.884-1.041,4.325l2,.8a6.544,6.544,0,0,1-3.2,3.524c-2.723,9.692-6.248,19.063-10.733,23.789a18.254,18.254,0,0,1-12.335,4.566,38.688,38.688,0,0,1-8.25-1.121,35.474,35.474,0,0,0-7.049-1.121,6.7,6.7,0,0,0-6.728,4.405l43.654,16.42a10.3,10.3,0,0,0,3.6.721H308.4a6.551,6.551,0,0,0,3.765-3.685h0v-.08h0v-.08h0v-.08h0v-.08h0v-.08h0c0-.08.08-.24.08-.32h0v-.08h0a8.111,8.111,0,0,0,.32-2.483v-.4h0v-.08h0v-.08h0v-.08h0v-.08h0v-.08l-.4-10.893h0l-.561-15.7-18.262,15.779a.91.91,0,0,1-.641.24.978.978,0,0,1-.721-.32h0v-.16a.482.482,0,0,1,.08-.32c.08-.16.16-.24.24-.4h0l19.464-16.821-.24-6.248.4-23.309" transform="translate(-56.043 -20.957)"/>
    <path id="Path_149" data-name="Path 149" class="cls-4" d="M321.6,119.6c0,.08.08.08.08.16l.08-.08c-.08-.08-.08-.08-.16-.08" transform="translate(-68.362 -23.802)"/>
    <path id="Path_150" data-name="Path 150" class="cls-4" d="M320.548,115.3a.614.614,0,0,0-.16,1.2h.24a.614.614,0,0,0,.16-1.2h-.24" transform="translate(-68.031 -22.947)"/>
    <path id="Path_151" data-name="Path 151" class="cls-4" d="M322.348,116a.614.614,0,0,0-.16,1.2h.32a3.318,3.318,0,0,0-.16-1.2" transform="translate(-68.389 -23.086)"/>
    <path id="Path_152" data-name="Path 152" class="cls-4" d="M319.881,117.1a.571.571,0,0,0-.481.24,4.817,4.817,0,0,1,1.041.721l.08-.08a.6.6,0,0,0-.4-.8.62.62,0,0,0-.24-.08" transform="translate(-67.924 -23.305)"/>
    <path id="Path_153" data-name="Path 153" class="cls-4" d="M321.746,117.8a.6.6,0,0,0-.561.4.364.364,0,0,0,0,.4,1.75,1.75,0,0,1,.24.4l.08.08h.4a2.4,2.4,0,0,0,.32-.641c0-.08.08-.16.08-.24a.625.625,0,0,0-.32-.32c-.16-.08-.16-.08-.24-.08" transform="translate(-68.267 -23.444)"/>
    <path id="Path_154" data-name="Path 154" class="cls-4" d="M320.648,113.8c-.08.08-.08.16-.16.24a.6.6,0,0,0,.4.8h.24a.571.571,0,0,0,.481-.24,3.2,3.2,0,0,0-.961-.8" transform="translate(-68.13 -22.648)"/>
    <path id="Path_155" data-name="Path 155" class="cls-4" d="M316.728,113.9h-.16a1.406,1.406,0,0,0-.4.32l-.08.08a.6.6,0,0,0,.4.8h.24a.614.614,0,0,0,.16-1.2h-.16" transform="translate(-67.255 -22.668)"/>
    <path id="Path_156" data-name="Path 156" class="cls-4" d="M318.648,114.58a.614.614,0,0,0-.16,1.2h.4a.658.658,0,0,0,.4-.4.817.817,0,0,0-.16-.721c-.08-.08-.16-.08-.24-.16a.294.294,0,0,1-.24.08" transform="translate(-67.653 -22.787)"/>
    <path id="Path_157" data-name="Path 157" class="cls-4" d="M316.046,115.7a.6.6,0,0,0-.561.4.511.511,0,0,0,0,.481,3.9,3.9,0,0,1,.961-.08h.24a.7.7,0,0,0-.4-.8h-.24" transform="translate(-67.133 -23.026)"/>
    <path id="Path_158" data-name="Path 158" class="cls-4" d="M317.961,116.4a.6.6,0,0,0-.561.32l.961.24c.08,0,.08,0,.16.08h.08v-.16c-.08-.16-.16-.4-.4-.481h-.24" transform="translate(-67.526 -23.166)"/>
    <path id="Path_159" data-name="Path 159" class="cls-4" d="M317.9,113.4c-.24.08-.561.16-.8.24h0c.08,0,.16.08.24.08.24-.08.481-.16.561-.32" transform="translate(-67.466 -22.569)"/>
    <path id="Path_160" data-name="Path 160" class="cls-4" d="M318.767,113.3h-.08v.08a.6.6,0,0,0,.4.8h.24a.6.6,0,0,0,.561-.4c0-.08.08-.16,0-.32h0a.722.722,0,0,0-.4-.08,2.217,2.217,0,0,0-.721-.08" transform="translate(-67.772 -22.549)"/>
    <path id="Path_161" data-name="Path 161" class="cls-4" d="M300.5,111.8v.08c.08,0,.08-.08.16-.08h-.16" transform="translate(-64.163 -22.25)"/>
    <path id="Path_162" data-name="Path 162" class="cls-4" d="M303.548,109a.614.614,0,0,0-.16,1.2h.24a.614.614,0,0,0,.16-1.2h-.24" transform="translate(-64.648 -21.693)"/>
    <path id="Path_163" data-name="Path 163" class="cls-4" d="M302.181,108.5a3.074,3.074,0,0,0-.881.881c.08.08.16.16.24.16s.16.08.24.08a.6.6,0,0,0,.561-.4,1.077,1.077,0,0,0-.16-.721" transform="translate(-64.322 -21.593)"/>
    <path id="Path_164" data-name="Path 164" class="cls-4" d="M302.961,110.78a.6.6,0,0,0-.561.4v.08h.24a4.567,4.567,0,0,1,1.041.08.817.817,0,0,0-.4-.641c-.16.16-.24.08-.32.08" transform="translate(-64.541 -22.031)"/>
    <path id="Path_165" data-name="Path 165" class="cls-4" d="M301.081,110.1a.294.294,0,0,0-.24.08c0,.08-.08.16-.08.24a2.339,2.339,0,0,0-.16.721l.24.24H301c.16,0,.32-.08.481-.08a1.106,1.106,0,0,0,.24-.32.6.6,0,0,0-.4-.8.294.294,0,0,0-.24-.08" transform="translate(-64.183 -21.912)"/>
    <path id="Path_166" data-name="Path 166" class="cls-4" d="M304.241,107.9a1.764,1.764,0,0,0-.641.08.713.713,0,0,0,.4.641c.08,0,.16.08.24.08a.6.6,0,0,0,.561-.4c0-.08.08-.16,0-.24a1.158,1.158,0,0,0-.561-.16" transform="translate(-64.78 -21.474)"/>
    <path id="Path_167" data-name="Path 167" class="cls-4" d="M307.348,110.4a.614.614,0,0,0-.16,1.2c.08,0,.16.08.24.08a.6.6,0,0,0,.561-.4v-.08c0-.16-.08-.32-.08-.481a1.106,1.106,0,0,0-.32-.24.294.294,0,0,0-.24-.08" transform="translate(-65.404 -21.972)"/>
    <path id="Path_168" data-name="Path 168" class="cls-4" d="M305.448,109.7a.614.614,0,0,0-.16,1.2h.24a.614.614,0,0,0,.16-1.2h-.24" transform="translate(-65.026 -21.832)"/>
    <path id="Path_169" data-name="Path 169" class="cls-4" d="M306.761,112.2a.6.6,0,0,0-.561.4,7.551,7.551,0,0,1,.8.8c.16-.08.32-.16.32-.4a.6.6,0,0,0-.4-.8c0,.08-.08,0-.16,0" transform="translate(-65.297 -22.33)"/>
    <path id="Path_170" data-name="Path 170" class="cls-4" d="M304.881,111.5a1.139,1.139,0,0,0-.481.16c.08,0,.08,0,.16.08a3.108,3.108,0,0,1,.881.481.634.634,0,0,0-.4-.641.28.28,0,0,1-.16-.08" transform="translate(-64.939 -22.19)"/>
    <path id="Path_171" data-name="Path 171" class="cls-4" d="M307.4,109.4a.551.551,0,0,0,.4.641h0a1.744,1.744,0,0,0-.4-.641" transform="translate(-65.532 -21.772)"/>
    <path id="Path_172" data-name="Path 172" class="cls-4" d="M305.648,108.2c-.08.08-.16.16-.16.24a.6.6,0,0,0,.4.8h.24a.6.6,0,0,0,.561-.4v-.08a2.533,2.533,0,0,0-1.041-.561h0" transform="translate(-65.145 -21.534)"/>
    <path id="Path_173" data-name="Path 173" class="cls-4" d="M304.808,125.772h0m0,0h0m0-.08h0m-.08,0h0m0,0h0m-.08,0h0m0,0h0m-.08-.08h0m0,0h0m-.08,0h0m0,0h0m-.08,0h0m0-.08h0m-.08,0h0m0,0h0m-.08,0h0m0,0h0m-.08-.08h0m0,0h0m-.08,0h0m0,0h0m0,0h0m-.08-.08h0m0,0h0m-.08,0h0m0,0h0m-.08,0h0m-.08-.08h0M298.8,115.6c-1.362,3.6.881,7.77,4.966,9.692a9.343,9.343,0,0,1-5.206-6.168,5.327,5.327,0,0,1,2.723-.721,5.05,5.05,0,0,1,2.083.4,5.83,5.83,0,0,1,3.444,7.369,8.449,8.449,0,0,1-1.922-.481,11.325,11.325,0,0,0,3.524.641,8.869,8.869,0,0,0,4.165-.961,6.9,6.9,0,0,0,3.2-3.524l-2-.8L298.8,115.6" transform="translate(-63.745 -23.006)"/>
    <path id="Path_174" data-name="Path 174" class="cls-11" d="M301.323,119.2a5.327,5.327,0,0,0-2.723.721,9.343,9.343,0,0,0,5.206,6.168h.08a8.449,8.449,0,0,0,1.922.481,5.83,5.83,0,0,0-3.444-7.369c.4.08-.32,0-1.041,0" transform="translate(-63.785 -23.723)"/>
    <path id="Path_175" data-name="Path 175" class="cls-10" d="M300.6,129.1a5.333,5.333,0,0,0,3.044,2.884.482.482,0,0,0,.32.08,6.1,6.1,0,0,0,1.682.24,4.99,4.99,0,0,0,2.483-.641,5.723,5.723,0,0,1-1.6.16,8.046,8.046,0,0,1-2.483-.481c-.08,0-.08-.08-.16-.08A7.5,7.5,0,0,1,300.6,129.1" transform="translate(-64.183 -25.693)"/>
    <path id="Path_176" data-name="Path 176" class="cls-8" d="M305.883,94.826h0m0,0h0M303.4,91.461c0,.24.08.481.08.721a3.841,3.841,0,0,0,2.323,2.643,3.955,3.955,0,0,1-2.4-3.364M317.1,74a7.523,7.523,0,0,0-3.765.961c-.16-.08-.24-.08-.4-.16a5.256,5.256,0,0,0-1.842-.32,3.929,3.929,0,0,0-3.765,2.323,4.018,4.018,0,0,0-.16.961,3.589,3.589,0,0,0-2.643,2.243,3.908,3.908,0,0,0,1.362,4.325L303.72,90.1a13.5,13.5,0,0,0,3.524,2.163,6.817,6.817,0,0,0,2.083.4c2,0,3.765-1.121,5.607-3.364a15.64,15.64,0,0,0,1.842.16c3.925,0,5.927-2.483,7.049-5.046a17.574,17.574,0,0,0,1.2-5.046h-.08a7.8,7.8,0,0,0-4.806-4.726A7.179,7.179,0,0,0,317.1,74" transform="translate(-64.74 -14.727)"/>
    <path id="Path_177" data-name="Path 177" class="cls-12" d="M303.64,93.9a5.029,5.029,0,0,0-.24,1.522v-.16a4.441,4.441,0,0,1,.24-1.362h0" transform="translate(-64.74 -18.688)"/>
    <path id="Path_178" data-name="Path 178" class="cls-13" d="M324.946,80.6h0a15.309,15.309,0,0,1-1.2,5.046c-1.041,2.483-3.124,5.046-7.049,5.046a15.64,15.64,0,0,1-1.842-.16c-1.922,2.163-3.685,3.364-5.607,3.364a6.817,6.817,0,0,1-2.083-.4,12.324,12.324,0,0,1-3.524-2.163h0a4.068,4.068,0,0,0-.24,1.362v.16h0a3.776,3.776,0,0,0,2.483,3.364h0l11.614,4.325a4.443,4.443,0,0,0,1.362.24,3.708,3.708,0,0,0,3.524-2.4l2.243-6.007a4.02,4.02,0,0,0,3.364-2.323,3.144,3.144,0,0,0,.24-1.121,3.357,3.357,0,0,0-.8-2.243c.16-.24.32-.561.481-.8a3.214,3.214,0,0,0,.24-1.2,4.77,4.77,0,0,0-3.2-4.085" transform="translate(-64.74 -16.041)"/>
    <path id="Path_179" data-name="Path 179" class="cls-8" d="M301.74,156.633h0m0,0h0m0,0h0m-.08,0h0m0,0h0m0,0h0m0-.08h0m0,0h0m0,0h0m0,0h0m-.08-.08h0m0,0h0m0,0h0m0,0h0m0,0h0m0-.08h0m0,0h0m-.08,0h0m0,0h0m0-.08h0m0,0h0m0,0h0m0,0h0m0,0h0m0-.08h0m0,0h0m0,0h0m0,0h0m0,0h0m0-.08h0m0,0h0m0,0h0m0,0h0m.32-.881h0m0,0h0m27.233-19.063c1.362-1.6,2.163-4-.08-4.886a6.955,6.955,0,0,0-1.682-.32,2.755,2.755,0,0,1,1.682-.641,3.407,3.407,0,0,1,.881.16,3.048,3.048,0,0,1,1.041.721,2.518,2.518,0,0,1-.24,3.524l-1.6,1.442m0-6.808a3.357,3.357,0,0,0-2.243.8l-2.163,1.842c-1.2,1.041-1.041,4.325-1.121,4.405l-2.243,1.922L301.82,155.192,320.8,141.415l-17.7,15.3a.909.909,0,0,1-.641.24.482.482,0,0,1-.32-.08,1.106,1.106,0,0,1-.32-.24,1.193,1.193,0,0,0,.721.32.91.91,0,0,0,.641-.24l18.262-15.779,3.444-2.964h1.522a4.82,4.82,0,0,0,2.884-.641l2.163-1.842a3.441,3.441,0,0,0,.32-4.886,3.846,3.846,0,0,0-2.723-1.2" transform="translate(-64.362 -25.753)"/>
    <path id="Path_180" data-name="Path 180" class="cls-13" d="M335.382,130.7a2.755,2.755,0,0,0-1.682.641,4.829,4.829,0,0,1,1.682.32c2.243.881,1.442,3.284.08,4.886l1.6-1.362a2.447,2.447,0,0,0,.24-3.524,3.048,3.048,0,0,0-1.041-.721,1.146,1.146,0,0,0-.881-.24" transform="translate(-70.77 -26.012)"/>
    <path id="Path_181" data-name="Path 181" class="cls-13" d="M320.8,144.4,301.82,158.177h0a.681.681,0,0,0-.24.4.482.482,0,0,0-.08.32v.16h0c.08.08.24.16.32.24a.482.482,0,0,0,.32.08.909.909,0,0,0,.641-.24L320.8,144.4" transform="translate(-64.362 -28.738)"/>
    <path id="Path_182" data-name="Path 182" class="cls-1" d="M131.643,19.562C129,11.472,121.951,6.586,115.864,8.589L12.617,42.63c-6.087,2-8.811,10.172-6.168,18.182l66,200.566c2.643,8.09,9.692,12.976,15.779,10.973L191.476,238.39c6.087-2,8.811-10.172,6.168-18.182l-66-200.646" transform="translate(-5.441 -1.62)"/>
    <path id="Path_183" data-name="Path 183" class="cls-14" d="M94.2,252.3l2.643,8.09,87.147-28.6-2.643-8.09L94.2,252.3" transform="translate(-23.105 -44.52)"/>
    <path id="Path_184" data-name="Path 184" class="cls-14" d="M103.843,281.885,190.99,253.37l-2.643-8.17L101.2,273.8l2.643,8.09" transform="translate(-24.499 -48.799)"/>
    <path id="Path_185" data-name="Path 185" class="cls-14" d="M110.843,303.185l87.147-28.6-2.643-8.09L108.2,295.015l2.643,8.17" transform="translate(-25.892 -53.038)"/>
    <path id="Path_186" data-name="Path 186" class="cls-7" d="M139.078,8.2a8.6,8.6,0,0,0-2.8.481L108,17.892h0L136.355,8.6a7.746,7.746,0,0,1,2.723-.4c5.286,0,10.733,4.566,12.976,11.454l33.561,101.885L152.054,19.574C149.811,12.766,144.365,8.2,139.078,8.2" transform="translate(-25.852 -1.632)"/>
    <path id="Path_187" data-name="Path 187" class="cls-15" d="M183.954,223.7,107.3,248.851v8.971l75.613-24.75a43.1,43.1,0,0,1,2.483-5.126l-1.442-4.245" transform="translate(-25.713 -44.52)"/>
    <path id="Path_188" data-name="Path 188" class="cls-15" d="M179.509,249.3,107.1,273.009v8.971l69.846-22.908c.961-3.2,1.842-6.488,2.563-9.772" transform="translate(-25.673 -49.615)"/>
    <path id="Path_189" data-name="Path 189" class="cls-15" d="M173.64,275.4,108.2,296.866l2.643,8.09,58.792-19.3c.24-.561.481-1.041.721-1.6a.28.28,0,0,1,.08-.16c1.121-2.8,2.163-5.687,3.2-8.49" transform="translate(-25.892 -54.809)"/>
    <path id="Path_190" data-name="Path 190" class="cls-9" d="M176.926,211.169,107.08,234.077,107,272.684l50.142-16.42q2.763-4.806,5.286-9.612c2.483-4.726,4.886-9.532,6.969-14.1l-58.792,19.3-2.643-8.09L173.4,222.3c1.282-3.765,2.4-7.449,3.524-11.134m5.847-20.986-75.613,24.75v10.092l72.409-23.709c.4-1.6.721-3.2,1.041-4.886a44.351,44.351,0,0,1,2.163-6.248M138.879,8.2a8.6,8.6,0,0,0-2.8.481L107.8,17.972l-.561,187.991,76.654-25.151,1.362,4.165a54.833,54.833,0,0,1,9.051-12.095c2.163-1.682,4.245-3.284,6.408-4.966l-15.3-46.537-33.561-101.8C149.612,12.766,144.166,8.2,138.879,8.2" transform="translate(-25.653 -1.632)"/>
    <path id="Path_191" data-name="Path 191" class="cls-16" d="M266.553,327.052c4.165-8.811,8.01-17.782,11.774-26.913a213.627,213.627,0,0,0,12.015-38.207l1.922-14.177A53.346,53.346,0,0,0,253.1,196.332a53.794,53.794,0,0,0-41.09,5.367c-3.6,2.8-7.209,5.527-10.813,8.33a53.087,53.087,0,0,0-13.7,23.549,212.882,212.882,0,0,1-10.333,34.2,321.113,321.113,0,0,1-31.879,54.627c-.481.721-1.041,1.442-1.6,2.163-.721.881-1.362,1.682-2.083,2.563H266.553" transform="translate(-32.539 -38.699)"/>
    <path id="Path_192" data-name="Path 192" class="cls-17" d="M183.169,288.2h0c-2.083,4.566-4.486,9.452-6.969,14.1,2.483-4.646,4.806-9.291,6.969-14.1" transform="translate(-39.425 -57.357)"/>
    <path id="Path_193" data-name="Path 193" class="cls-18" d="M185.621,286.2c-.24.561-.481,1.041-.721,1.6h0c.24-.561.481-1.041.721-1.6" transform="translate(-41.156 -56.959)"/>
    <path id="Path_194" data-name="Path 194" class="cls-19" d="M244.612,194.4a53.324,53.324,0,0,0-26.993,7.289c-3.6,2.8-7.209,5.527-10.813,8.33a54.832,54.832,0,0,0-9.051,12.095c-.881,1.682-1.762,3.364-2.483,5.126a42.054,42.054,0,0,0-2.163,6.328,212.883,212.883,0,0,1-10.333,34.2.28.28,0,0,1-.08.16c-.24.561-.481,1.041-.721,1.6-2.163,4.806-4.486,9.452-6.969,14.1-1.682,3.284-3.444,6.488-5.206,9.532a89.713,89.713,0,0,1,10.893-.721c41.251,0,44.374,34.6,44.374,34.6h47.178c4.165-8.811,8.01-17.782,11.774-26.913a213.624,213.624,0,0,0,12.015-38.207l1.922-14.177a53.035,53.035,0,0,0-7.289-26.913,52.273,52.273,0,0,0-13.136-14.978c-1.522-1.2-3.044-2.243-4.646-3.284a52.96,52.96,0,0,0-14.1-6.248,53.961,53.961,0,0,0-14.177-1.922" transform="translate(-38.151 -38.689)"/>
    <path id="Path_195" data-name="Path 195" class="cls-20" d="M88.8,162.947a46.306,46.306,0,0,0,.8,9.371,50.109,50.109,0,0,0,2.643,8.971,62.738,62.738,0,0,0,8.651,15.3,4.993,4.993,0,0,0,3.845,1.762,5.753,5.753,0,0,0,4-1.442,5.414,5.414,0,0,0,1.762-3.845,6.152,6.152,0,0,0-1.442-4c-.32-.4-.641-.881-.961-1.362a13.586,13.586,0,0,0,.8,1.121A59.889,59.889,0,0,1,102.013,176c.16.481.32.881.481,1.362a40.915,40.915,0,0,1-2.563-11.134c.08.481.08.961.16,1.442a39.765,39.765,0,0,1-.16-4.405,5.6,5.6,0,0,0-5.286-5.767,5.927,5.927,0,0,0-5.847,5.447" transform="translate(-22.028 -31.345)"/>
    <path id="Path_196" data-name="Path 196" class="cls-20" d="M117.9,153.247a46.306,46.306,0,0,0,.8,9.371,50.109,50.109,0,0,0,2.643,8.971,62.738,62.738,0,0,0,8.651,15.3,4.993,4.993,0,0,0,3.845,1.762,5.753,5.753,0,0,0,4-1.442,5.414,5.414,0,0,0,1.762-3.845,6.152,6.152,0,0,0-1.442-4c-.32-.4-.641-.881-.961-1.362a13.587,13.587,0,0,0,.8,1.121,59.889,59.889,0,0,1-6.888-12.816c.16.481.32.881.481,1.362a40.915,40.915,0,0,1-2.563-11.134c.08.481.08.961.16,1.442a39.767,39.767,0,0,1-.16-4.405,5.6,5.6,0,0,0-5.286-5.767,5.927,5.927,0,0,0-5.847,5.447" transform="translate(-27.819 -29.415)"/>
    <path id="Path_197" data-name="Path 197" class="cls-21" d="M117.9,153.247a46.306,46.306,0,0,0,.8,9.371,50.109,50.109,0,0,0,2.643,8.971,62.738,62.738,0,0,0,8.651,15.3,4.993,4.993,0,0,0,3.845,1.762,5.753,5.753,0,0,0,4-1.442,5.414,5.414,0,0,0,1.762-3.845,6.152,6.152,0,0,0-1.442-4c-.32-.4-.641-.881-.961-1.362a13.587,13.587,0,0,0,.8,1.121,59.889,59.889,0,0,1-6.888-12.816c.16.481.32.881.481,1.362a40.915,40.915,0,0,1-2.563-11.134c.08.481.08.961.16,1.442a39.767,39.767,0,0,1-.16-4.405,5.6,5.6,0,0,0-5.286-5.767,5.927,5.927,0,0,0-5.847,5.447" transform="translate(-27.819 -29.415)"/>
    <path id="Path_198" data-name="Path 198" class="cls-20" d="M122.717,84.4A8.875,8.875,0,0,0,111.5,78.789L72.5,91.845a8.875,8.875,0,0,0-5.607,11.214l19.224,57.511,55.828-18.663L122.717,84.4" transform="translate(-17.581 -15.591)"/>
    <path id="Path_199" data-name="Path 199" class="cls-21" d="M130.1,84.4a8.875,8.875,0,0,0-11.214-5.607s-3.6,1.2-7.609,2.563c19.063,4.165,22.908,31.479,4.085,51.583-9.211,8.571-13.216,16.1-11.374,24.19,8.731-2.884,45.256-15.139,45.256-15.139L130.1,84.4" transform="translate(-24.967 -15.591)"/>
    <path id="Path_200" data-name="Path 200" class="cls-4" d="M100.081,111.2l1.121-.4.4,1.121c.641-.16,1.282-.24,1.762-.32a.605.605,0,0,1,.08-.32l-1.041.32-.4-1.121,1.121-.4.32.961a2.366,2.366,0,0,0-.16-1.041,3,3,0,0,0-.561-.961l.08.32-1.121.4-.4-1.121.641-.24a3.08,3.08,0,0,0-1.682-.4v.08l-1.121.4v-.08a2.956,2.956,0,0,0-1.362,1.442l.881-.32.4,1.121-1.121.4-.24-.8a2.74,2.74,0,0,0,.08,1.6,3.52,3.52,0,0,0,.961,1.442,5.287,5.287,0,0,1,1.762-.961Zm-.641-1.922,1.121-.4.4,1.121-1.121.4Zm.24,3.284-1.121.4-.4-1.121,1.121-.4Z" transform="translate(-23.78 -21.494)"/>
    <path id="Path_201" data-name="Path 201" class="cls-4" d="M84.061,116.5l1.121-.4.4,1.121a16.572,16.572,0,0,1,1.762-.32c0-.08.08-.16.08-.32l-1.041.32-.4-1.121,1.121-.4.32.961a2.366,2.366,0,0,0-.16-1.041,3,3,0,0,0-.561-.961l.08.32-1.121.4-.4-1.121.641-.24a3.08,3.08,0,0,0-1.682-.4v.08l-1.121.4-.08-.08a2.956,2.956,0,0,0-1.362,1.442l.881-.32.4,1.121-1.121.4-.24-.8a2.74,2.74,0,0,0,.08,1.6,3.52,3.52,0,0,0,.961,1.442,5.287,5.287,0,0,1,1.762-.961Zm-.641-1.922,1.121-.4.4,1.121-1.121.4Zm.24,3.284-1.121.4-.4-1.121,1.121-.4Z" transform="translate(-20.576 -22.549)"/>
    <path id="Path_202" data-name="Path 202" class="cls-21" d="M101.47,130.4a5.238,5.238,0,0,1-3.124,2.884,5.758,5.758,0,0,1-4.646-.641C96.984,133.364,99.067,133.123,101.47,130.4Z" transform="translate(-23.006 -25.952)"/>
    <path id="Path_203" data-name="Path 203" class="cls-22" d="M83,122.488a6.983,6.983,0,0,0,1.442,2.483l15.7-5.206.16.561-15.379,5.126c2.4,2.243,6.408,2.964,10.333,1.682,5.286-1.762,8.41-6.728,6.969-11.134L83,122.488" transform="translate(-20.876 -23.086)"/>
    <path id="Path_204" data-name="Path 204" class="cls-2" d="M104.644,121.784l-1.282-.16-.8.881-.24-1.2-1.121-.561,1.121-.561.16-1.282.881.881,1.2-.24L104,120.662Z" transform="translate(-24.499 -23.663)"/>
    <path id="Path_205" data-name="Path 205" class="cls-23" d="M96.029,156.259a2.265,2.265,0,0,1-1.442,1.121h0a2.556,2.556,0,0,0,1.442-1.121M89.781,140.4a3.407,3.407,0,0,0-.881.16v.08a4.927,4.927,0,0,1,.881-.24,2.838,2.838,0,0,1,2.643,2l3.845,11.454h0L92.424,142.4a2.716,2.716,0,0,0-2.643-2" transform="translate(-22.051 -27.942)"/>
    <path id="Path_206" data-name="Path 206" class="cls-24" d="M100.624,75.285l-2.163.721-.24-.721A7.676,7.676,0,0,0,88.449,70.4h-.08A7.8,7.8,0,0,0,83.4,80.251l.24.721-2.163.721A2.965,2.965,0,1,0,83.4,87.3l2.243-.721,14.738-4.886,2.083-.721a2.989,2.989,0,1,0-1.842-5.687" transform="translate(-20.158 -13.93)"/>
    <path id="Path_207" data-name="Path 207" class="cls-7" d="M79.7,89.3h0" transform="translate(-20.22 -17.772)"/>
    <path id="Path_208" data-name="Path 208" class="cls-25" d="M90.974,69.9a8.932,8.932,0,0,0-2.483.4h-.08C97.142,72.543,94.5,81.755,79.6,85.359h0a3.012,3.012,0,0,0,2.8,2,4.02,4.02,0,0,0,.961-.16l2.243-.721,14.738-4.886,2.083-.721a2.98,2.98,0,0,0,2.083-2.8,4.021,4.021,0,0,0-.16-.961,2.9,2.9,0,0,0-2.8-2,4.02,4.02,0,0,0-.961.16l-2.163.721-.24-.721A7.449,7.449,0,0,0,90.974,69.9" transform="translate(-20.2 -13.911)"/>
    <path id="Path_209" data-name="Path 209" class="cls-1" d="M254.442,226.518c0,8.49-5.126,15.379-11.534,15.379H134.134c-6.408,0-11.534-6.888-11.534-15.379V15.379C122.6,6.888,127.806,0,134.134,0H242.828c6.408,0,11.534,6.888,11.534,15.379V226.518" transform="translate(-28.758)"/>
    <rect id="Rectangle_16" data-name="Rectangle 16" class="cls-14" width="91.713" height="8.571" transform="translate(113.867 178.539)"/>
    <rect id="Rectangle_17" data-name="Rectangle 17" class="cls-14" width="91.713" height="8.571" transform="translate(113.867 196.641)"/>
    <rect id="Rectangle_18" data-name="Rectangle 18" class="cls-14" width="91.713" height="8.571" transform="translate(113.867 214.583)"/>
    <path id="Path_210" data-name="Path 210" class="cls-26" d="M118.129,171.3l-7.529,2.483,7.529-2.483.16.4c-.08-.08-.08-.24-.16-.4" transform="translate(-26.369 -34.092)"/>
    <path id="Path_211" data-name="Path 211" class="cls-27" d="M122.083,170.5l-2.083.721c.08.16.08.32.16.4l1.922,5.527V170.5" transform="translate(-28.24 -33.932)"/>
    <path id="Path_212" data-name="Path 212" class="cls-28" d="M119.615,152.907c-3.6,1.2-6.969,2.323-9.692,3.2H110l7.529-2.483,2.083-.721h0M112.166,82.1l-4.405,1.442-.16,60.074a51.118,51.118,0,0,1,8.571-10.012,51.809,51.809,0,0,0,3.444-4.085V85.3a22.334,22.334,0,0,0-7.449-3.2" transform="translate(-25.772 -16.339)"/>
    <path id="Path_213" data-name="Path 213" class="cls-27" d="M119.615,129a51.813,51.813,0,0,1-3.444,4.085A49.319,49.319,0,0,0,107.6,143.1v13.216l2.4-.8c2.723-.881,6.087-2,9.692-3.2L119.615,129m0-49.9-7.449,2.483a20.939,20.939,0,0,1,7.449,3.284V79.1" transform="translate(-25.772 -15.742)"/>
    <path id="Path_214" data-name="Path 214" class="cls-29" d="M107.4,208.4h0" transform="translate(-25.732 -41.475)"/>
    <path id="Path_215" data-name="Path 215" class="cls-26" d="M108.682,204.122h0m-.32,0h0m-.961-.16h0c.32.08.641.08.961.16a4.018,4.018,0,0,1-.961-.16m4.886-1.2h0m-.32-8.971h0m-1.2-1.762h0m-.16-.32h0m-.08-.08h0m-.16-.32h0m-.08-.08h0m-.08-.24h0m-.08-.08h0m-.16-.16.08.08a.078.078,0,0,0-.08-.08m-.08-.16.08.08-.08-.08m-.08-.08c0,.08.08.08.08.16,0-.08,0-.16-.08-.16M107.48,186.1h0c.721,1.522,1.522,2.964,2.323,4.405-.8-1.442-1.6-2.964-2.323-4.405" transform="translate(-25.732 -37.037)"/>
    <path id="Path_216" data-name="Path 216" class="cls-28" d="M107.48,186.1l-.08,17.942h0c.32.08.641.08.961.16h.24a5.3,5.3,0,0,0,3.6-1.362h0l.08-.08a5.414,5.414,0,0,0,1.762-3.845v-.24a6.13,6.13,0,0,0-1.442-3.765c-.16-.24-.4-.561-.561-.8h0c-.08-.08-.08-.16-.16-.24h0c-.4-.561-.8-1.2-1.2-1.842h0c-.08-.08-.08-.16-.16-.24h0a.078.078,0,0,0-.08-.08h0c-.08-.08-.08-.16-.16-.24v-.08a.078.078,0,0,0-.08-.08v-.08a2378.6,2378.6,0,0,1-.16-.16v-.08a.078.078,0,0,0-.08-.08v-.08l-.08-.08h0l-.08-.08h0c0-.08-.08-.08-.08-.16h0c-.721-1.442-1.522-2.964-2.243-4.405" transform="translate(-25.732 -37.037)"/>
    <path id="Path_217" data-name="Path 217" class="cls-30" d="M80.153,171.07a1.378,1.378,0,0,1,.08,1.922h0a1.378,1.378,0,0,1-1.922.08L63.493,159.215a1.378,1.378,0,0,1-.08-1.922h0a1.378,1.378,0,0,1,1.922-.08L80.153,171.07" transform="translate(-16.908 -31.218)"/>
    <path id="Path_218" data-name="Path 218" class="cls-3" d="M63.07,153.2a2.664,2.664,0,0,1-3.6,3.925l-2.323-2.163C56.1,153.926,54.9,149.2,54.9,149.2s4.806.8,5.847,1.842L63.07,153.2" transform="translate(-15.284 -29.693)"/>
    <path id="Path_219" data-name="Path 219" class="cls-24" d="M57.143,155.067C56.021,154.026,54.9,149.3,54.9,149.3s4.806.8,5.847,1.842c0,0,.4.4-.32,1.2-.561.641-.961.08-1.522.721s-.24,1.121-.721,1.682a.922.922,0,0,1-1.041.32" transform="translate(-15.284 -29.713)"/>
    <path id="Path_220" data-name="Path 220" class="cls-31" d="M65.26,154.36h0m-.08,0h0m0,0h0m0,0h0m0-.08h0m0,0h0m0,0h0m-.08,0h0m0,0h0m0,0h0m0-.08h0m0,0h0" transform="translate(-17.314 -30.688)"/>
    <path id="Path_221" data-name="Path 221" class="cls-32" d="M63.6,159.422,78.338,173.2a1.378,1.378,0,0,0,1.922-.08h0a1.378,1.378,0,0,0-.08-1.922L65.522,157.5a2.944,2.944,0,0,1-.641,1.2,2.556,2.556,0,0,1-1.282.721" transform="translate(-17.015 -31.345)"/>
    <path id="Path_222" data-name="Path 222" class="cls-33" d="M62.26,151.58a.594.594,0,0,1,.08.641c.641,1.362,2,4.245,1.041,6.007h0a2.692,2.692,0,0,0,1.282-.8,2.2,2.2,0,0,0,.641-1.2h0a2.621,2.621,0,0,0-.641-2.483h0l-2.4-2.163m-.16-.08.16.16c-.08-.16-.16-.16-.16-.16" transform="translate(-16.717 -30.151)"/>
    <path id="Path_223" data-name="Path 223" class="cls-34" d="M62,151.4a2.021,2.021,0,0,0,.32.721.594.594,0,0,0-.08-.641c-.08.08-.16,0-.24-.08h0" transform="translate(-16.697 -30.131)"/>
    <path id="Path_224" data-name="Path 224" class="cls-30" d="M78,141.5a13.519,13.519,0,0,0-7.209,6.888c-3.044,7.209,2.723,6.888,7.85,7.529,2.8.641-2,5.847,1.922,6.168a10.212,10.212,0,0,0,1.522-.08h.24a15.555,15.555,0,0,0,4.085-1.121c6.408-2.8,9.772-9.371,7.449-14.738S84.407,138.776,78,141.5Zm6.328,18.022a1.639,1.639,0,1,1,1.121-2.243A1.728,1.728,0,0,1,84.326,159.521Z" transform="translate(-18.278 -27.92)"/>
    <path id="Path_225" data-name="Path 225" class="cls-3" d="M77.641,150.8A1.207,1.207,0,0,1,77,152.4l-.721.32a1.207,1.207,0,0,1-1.6-.641V152a1.207,1.207,0,0,1,.641-1.6l.721-.32a1.306,1.306,0,0,1,1.6.721Z" transform="translate(-19.202 -29.853)"/>
    <path id="Path_226" data-name="Path 226" class="cls-5" d="M89.741,145.59a1.207,1.207,0,0,1-.641,1.6l-.721.32a1.207,1.207,0,0,1-1.6-.641v-.08a1.207,1.207,0,0,1,.641-1.6l.721-.32a1.173,1.173,0,0,1,1.6.721Z" transform="translate(-21.61 -28.807)"/>
    <path id="Path_227" data-name="Path 227" class="cls-16" d="M95.341,148.79a1.207,1.207,0,0,1-.641,1.6l-.721.32a1.207,1.207,0,0,1-1.6-.641v-.08a1.207,1.207,0,0,1,.641-1.6l.721-.32a1.152,1.152,0,0,1,1.6.721Z" transform="translate(-22.724 -29.444)"/>
    <path id="Path_228" data-name="Path 228" class="cls-35" d="M93.741,154.9a1.207,1.207,0,0,1-.641,1.6l-.721.32a1.207,1.207,0,0,1-1.6-.641v-.08a1.207,1.207,0,0,1,.641-1.6l.721-.32a1.234,1.234,0,0,1,1.6.721Z" transform="translate(-22.406 -30.666)"/>
    <path id="Path_229" data-name="Path 229" class="cls-24" d="M83.041,146.7a1.207,1.207,0,0,1-.641,1.6l-.721.32a1.207,1.207,0,0,1-1.6-.641v-.08a1.207,1.207,0,0,1,.641-1.6l.721-.32a1.306,1.306,0,0,1,1.6.721Z" transform="translate(-20.277 -29.037)"/>
    <path id="Path_230" data-name="Path 230" class="cls-24" d="M174.5,148.146a45.43,45.43,0,0,0,1.2,9.291,57.888,57.888,0,0,0,2.964,8.891,63.17,63.17,0,0,0,9.291,14.978,5.443,5.443,0,0,0,3.925,1.6,5.47,5.47,0,0,0,5.527-5.527,5.948,5.948,0,0,0-1.6-3.925c-.32-.4-.721-.881-1.041-1.282.32.4.561.721.881,1.121a54.559,54.559,0,0,1-7.369-12.5c.16.481.4.881.561,1.362a43.5,43.5,0,0,1-3.044-11.054,8.825,8.825,0,0,1,.16,1.442,39.281,39.281,0,0,1-.32-4.325,5.59,5.59,0,0,0-5.527-5.527,5.439,5.439,0,0,0-5.607,5.447" transform="translate(-39.086 -28.399)"/>
    <path id="Path_231" data-name="Path 231" class="cls-24" d="M199.1,148.146a45.43,45.43,0,0,0,1.2,9.291,57.888,57.888,0,0,0,2.964,8.891,63.171,63.171,0,0,0,9.291,14.978,5.443,5.443,0,0,0,3.925,1.6,5.47,5.47,0,0,0,5.527-5.527,5.948,5.948,0,0,0-1.6-3.925c-.32-.4-.721-.881-1.041-1.282.32.4.561.721.881,1.121a54.559,54.559,0,0,1-7.369-12.5c.16.481.4.881.561,1.362a43.5,43.5,0,0,1-3.044-11.054,8.825,8.825,0,0,1,.16,1.442,39.281,39.281,0,0,1-.32-4.325,5.59,5.59,0,0,0-5.527-5.527,5.439,5.439,0,0,0-5.607,5.447" transform="translate(-43.982 -28.399)"/>
    <path id="Path_232" data-name="Path 232" class="cls-25" d="M175.1,157c.16,1.121.4,2.243.641,3.364a57.888,57.888,0,0,0,2.964,8.891A63.171,63.171,0,0,0,188,184.233a5.443,5.443,0,0,0,3.925,1.6,5.47,5.47,0,0,0,5.527-5.527,5.948,5.948,0,0,0-1.6-3.925c-.24-.24-.4-.481-.641-.721a54.465,54.465,0,0,1-6.648-11.214,45.176,45.176,0,0,1-2.243-7.289L175.1,157h0" transform="translate(-39.206 -31.246)"/>
    <path id="Path_233" data-name="Path 233" class="cls-25" d="M210.513,154.1c.08.8.16,1.522.24,2.323H199.7c.16,1.121.4,2.163.641,3.284A57.888,57.888,0,0,0,203.3,168.6a63.171,63.171,0,0,0,9.291,14.978,5.443,5.443,0,0,0,3.925,1.6,5.471,5.471,0,0,0,5.527-5.527,5.948,5.948,0,0,0-1.6-3.925c-.24-.24-.4-.481-.641-.721a54.466,54.466,0,0,1-6.648-11.214,59.96,59.96,0,0,1-2.643-9.692" transform="translate(-44.102 -30.669)"/>
    <path id="Path_234" data-name="Path 234" class="cls-24" d="M207.735,117c2.243-8.25,4.806-15.94,5.687-24.43a4.842,4.842,0,0,1,0-1.522,8.794,8.794,0,0,0,.16-2,50.56,50.56,0,0,0-.24-10.413,21.933,21.933,0,0,0-3.925-8.811c-.641-.721-1.2-1.362-1.842-2.083a7.177,7.177,0,0,0-1.522-1.2,18.922,18.922,0,0,0-3.364-2.243,17.046,17.046,0,0,0-5.927-1.842c-.881,0-1.762-.24-2.563-.16-.881.16-1.842.16-2.723.4a13.78,13.78,0,0,0-3.2,1.121,11.926,11.926,0,0,0-6.328,10.253,34.747,34.747,0,0,0,.481,5.046,42.361,42.361,0,0,1,0,7.129c-.641,6.888-2.723,13.216-4.726,19.864-2.323,8.17-3.845,16.18-3.6,24.59a37.606,37.606,0,0,0,.8,7.289h30.758A50.944,50.944,0,0,1,207.735,117" transform="translate(-39.001 -12.395)"/>
    <path id="Path_235" data-name="Path 235" class="cls-4" d="M186.38,80.1c0,.16-.08.32-.08.481a2.217,2.217,0,0,0,.08.721c.32-.08.641-.16.881-.24l-.881-.961" transform="translate(-41.435 -15.941)"/>
    <path id="Path_236" data-name="Path 236" class="cls-4" d="M192.664,79.984a2.872,2.872,0,0,0-2.884-2.884H189.3l3.284,3.284a.871.871,0,0,0,.08-.4" transform="translate(-42.032 -15.344)"/>
    <path id="Path_237" data-name="Path 237" class="cls-4" d="M190.745,80.484,187.861,77.6a3.415,3.415,0,0,0-.961.881l1.842,1.842h.4c.561.08,1.121.08,1.6.16" transform="translate(-41.554 -15.444)"/>
    <path id="Path_238" data-name="Path 238" class="cls-4" d="M202.68,80.1c0,.16-.08.32-.08.481a2.218,2.218,0,0,0,.08.721c.32-.08.641-.16.881-.24l-.881-.961" transform="translate(-44.679 -15.941)"/>
    <path id="Path_239" data-name="Path 239" class="cls-4" d="M208.984,79.984A2.872,2.872,0,0,0,206.1,77.1h-.4l3.284,3.284c-.08-.16,0-.32,0-.4" transform="translate(-45.296 -15.344)"/>
    <path id="Path_240" data-name="Path 240" class="cls-4" d="M207.045,80.484,204.161,77.6a3.414,3.414,0,0,0-.961.881l1.842,1.842h.4c.561.08,1.041.08,1.6.16" transform="translate(-44.798 -15.444)"/>
    <path id="Path_241" data-name="Path 241" class="cls-4" d="M204.8,87.1c0,4.085-4.085,7.449-9.051,7.449S186.7,91.185,186.7,87.1Z" transform="translate(-41.515 -17.334)"/>
    <path id="Path_242" data-name="Path 242" class="cls-2" d="M197.443,94.807a9.426,9.426,0,0,0,8.01-4A5.848,5.848,0,0,0,195.2,94.567,11.267,11.267,0,0,0,197.443,94.807Z" transform="translate(-43.206 -17.673)"/>
    <path id="Path_243" data-name="Path 243" class="cls-34" d="M201.69,98.2a6.44,6.44,0,0,1-3.925,1.121h-.16a8.843,8.843,0,0,1-4-.961,5.6,5.6,0,0,0,3.925,1.682h.4A5.458,5.458,0,0,0,201.69,98.2" transform="translate(-42.888 -19.544)"/>
    <path id="Path_244" data-name="Path 244" class="cls-29" d="M223.243,96.2a5.722,5.722,0,0,1-.16,1.6,4.842,4.842,0,0,0,0,1.522h0a19.9,19.9,0,0,0,.16-3.124" transform="translate(-48.741 -19.145)"/>
    <path id="Path_245" data-name="Path 245" class="cls-34" d="M207.624,94.3c-7.609,26.112-33.962,34.2-32.44,50.3h30.758a45.122,45.122,0,0,1-.32-5.687,54.094,54.094,0,0,1,2.4-15.459c2.243-8.25,4.806-15.94,5.687-24.43a4.842,4.842,0,0,1,0-1.522c.08-.561.08-1.121.16-1.6v-.721a23.95,23.95,0,0,1-6.168,3.284V94.3" transform="translate(-39.21 -18.767)"/>
    <path id="Path_246" data-name="Path 246" class="cls-4" d="M223.758,65.509a23.629,23.629,0,1,0-47.258,0v.16h31.4V87.857a23.657,23.657,0,0,0,15.859-22.347" transform="translate(-39.485 -8.319)"/>
    <path id="Path_247" data-name="Path 247" class="cls-14" d="M208.535,82.253H179.7V71.6h28.835V82.253" transform="translate(-40.121 -14.25)"/>
    <path id="Path_248" data-name="Path 248" class="cls-15" d="M193.337,71.6h-6.969l7.209,10.653h-4.325L182.043,71.6h-1.282l7.209,10.653h-2.323L179.8,73.362v8.891h20.745L193.337,71.6m15.219,0h-6.248l6.248,9.211V71.6" transform="translate(-40.141 -14.25)"/>
    <path id="Path_249" data-name="Path 249" class="cls-36" d="M186.925,71.6H182.6l7.209,10.653h4.325L186.925,71.6" transform="translate(-40.699 -14.25)"/>
    <path id="Path_250" data-name="Path 250" class="cls-36" d="M205.671,71.6H196.7l7.209,10.653h8.01V80.811L205.671,71.6" transform="translate(-43.505 -14.25)"/>
    <path id="Path_251" data-name="Path 251" class="cls-36" d="M180.741,71.6H179.7v1.762l5.927,8.891h2.323L180.741,71.6" transform="translate(-40.121 -14.25)"/>
    <path id="Path_252" data-name="Path 252" class="cls-24" d="M208.9,57.629s5.847,3.284,6.408,1.362-1.2-5.687,2.323-5.286,6.648,3.2,5.847.481c-.881-2.723-.4-4.085-.4-4.085a23.521,23.521,0,0,1,6.488,11.134c1.842,7.129-4.566.721-6.328-.641s-3.364-2.4-2.884.8c.4,3.364-7.93,1.442-11.454-3.765" transform="translate(-45.933 -9.971)"/>
    <path id="Path_253" data-name="Path 253" class="cls-9" d="M205.9,41.9h0" transform="translate(-45.336 -8.339)"/>
    <path id="Path_254" data-name="Path 254" class="cls-4" d="M220.238,57.759c-.4,0-.641.24-.641.961,2.643,6.168-2.083,6.888-4.566,6.888a10.65,10.65,0,0,1-1.362-.08V74.9l.961,1.442h-.961V87.876a23.632,23.632,0,0,0,15.859-22.267v-.08a19.919,19.919,0,0,0-.32-3.765c0,.881-.32,1.282-.8,1.282-1.522,0-4.726-3.044-5.847-3.925a5.179,5.179,0,0,0-2.323-1.362M205.9,41.9h0a109.632,109.632,0,0,1,9.612,10.413,1.817,1.817,0,0,1,1.041-.24h.481c2.4.24,4.646,1.682,5.527,1.682.4,0,.561-.32.32-1.121a7.835,7.835,0,0,1-.4-4A23.854,23.854,0,0,0,205.9,41.9" transform="translate(-45.336 -8.339)"/>
    <path id="Path_255" data-name="Path 255" class="cls-4" d="M215.7,83.1v1.442h.961L215.7,83.1" transform="translate(-47.286 -16.538)"/>
    <path id="Path_256" data-name="Path 256" class="cls-25" d="M224.769,50.3a7.837,7.837,0,0,0,.4,4c.24.881.16,1.121-.32,1.121-.881,0-3.124-1.442-5.527-1.682h-.481a2.217,2.217,0,0,0-1.041.24,29.9,29.9,0,0,1,4.085,6.408c.08-.641.32-.961.641-.961a5.694,5.694,0,0,1,2.323,1.282c1.121.881,4.325,3.925,5.847,3.925.481,0,.8-.32.8-1.282A22.9,22.9,0,0,0,224.769,50.3" transform="translate(-47.704 -10.011)"/>
  </g>
</svg>
