<svg xmlns="http://www.w3.org/2000/svg" viewBox="0 0 316.478 275.045">
  <defs>
    <style>
      .cls-1 {
        fill: #f24040;
      }

      .cls-2 {
        fill: #444;
      }

      .cls-3 {
        fill: #f9e63a;
      }

      .cls-4 {
        fill: #f9eaa5;
      }

      .cls-5 {
        fill: #e7d53b;
      }

      .cls-6 {
        fill: #e7d99b;
      }

      .cls-7 {
        fill: #efb541;
      }

      .cls-8 {
        fill: #dea941;
      }

      .cls-9 {
        fill: #49e278;
      }

      .cls-10 {
        fill: #4cd673;
      }

      .cls-11 {
        fill: #ea44cb;
      }

      .cls-12 {
        fill: #d144b7;
      }

      .cls-13 {
        fill: #dece3b;
      }

      .cls-14 {
        fill: #d84141;
      }

      .cls-15 {
        fill: #a7a9ac;
      }

      .cls-16 {
        fill: #f2f2f2;
      }

      .cls-17 {
        fill: #9d9fa1;
      }

      .cls-18 {
        fill: #e0e0e0;
      }
    </style>
  </defs>
  <g id="Group_35" data-name="Group 35" transform="translate(0)">
    <path id="Path_257" data-name="Path 257" class="cls-1" d="M62.6,224.984a6.762,6.762,0,0,0,6.836,6.755h5.79a6.694,6.694,0,0,0,6.755-6.755v-9.168a6.831,6.831,0,0,0-6.755-6.916h-5.79a6.9,6.9,0,0,0-6.836,6.916v9.168" transform="translate(-39.438 -40.898)"/>
    <path id="Path_258" data-name="Path 258" class="cls-2" d="M62.6,214.584a6.83,6.83,0,0,0,6.836,6.836h5.79a6.83,6.83,0,0,0,6.836-6.836v-9.249a6.83,6.83,0,0,0-6.836-6.836h-5.79a6.9,6.9,0,0,0-6.836,6.916v9.168" transform="translate(-39.438 -38.862)"/>
    <path id="Path_259" data-name="Path 259" class="cls-3" d="M62.6,187.96a6.83,6.83,0,0,0,6.836,6.836h5.79a6.83,6.83,0,0,0,6.836-6.836V103.436A6.83,6.83,0,0,0,75.226,96.6h-5.79a6.83,6.83,0,0,0-6.836,6.836V187.96" transform="translate(-39.438 -18.912)"/>
    <path id="Path_260" data-name="Path 260" class="cls-4" d="M63.787,93.287l7.238-17.21c.724-1.769,1.93-1.769,2.654,0L81,93.689a7.129,7.129,0,0,1,.885,3.458v.643a6.762,6.762,0,0,1-6.755,6.836h-5.79A6.83,6.83,0,0,1,62.5,97.791v-.643a7.614,7.614,0,0,1,1.287-3.86" transform="translate(-39.419 -14.634)"/>
    <path id="Path_261" data-name="Path 261" class="cls-2" d="M69.3,83.315c.563-1.287,1.448-3.378,1.448-3.378l1.608-3.86c.724-1.769,1.93-1.769,2.654,0l1.608,3.86s.4,1.126,1.367,3.217C75.412,86.13,71.552,86.451,69.3,83.315Z" transform="translate(-40.75 -14.634)"/>
    <path id="Path_262" data-name="Path 262" class="cls-2" d="M81.9,211.8a6.865,6.865,0,0,1-6.434,5.549,8.1,8.1,0,0,1-7.158,4.745c-2.654,0-5.067-1.608-5.71-5.227v.241a6.83,6.83,0,0,0,6.836,6.836h5.79a6.817,6.817,0,0,0,6.675-5.549V211.8" transform="translate(-39.438 -41.465)"/>
    <path id="Path_263" data-name="Path 263" class="cls-5" d="M85.151,103.7h0a6.722,6.722,0,0,1-5.549,6.514c-.161,0-.241.08-.4.08,0,0,.08,40.292.161,65.223h5.871V104.183l-.08-.483" transform="translate(-42.688 -20.302)"/>
    <path id="Path_264" data-name="Path 264" class="cls-6" d="M85.249,103.7a7.366,7.366,0,0,1-5.549,6.434,6.7,6.7,0,0,0,5.549-6.434" transform="translate(-42.786 -20.302)"/>
    <path id="Path_265" data-name="Path 265" class="cls-1" d="M344.3,224.984a6.762,6.762,0,0,0,6.836,6.755h5.79a6.694,6.694,0,0,0,6.755-6.755v-9.168a6.831,6.831,0,0,0-6.755-6.916h-5.79a6.9,6.9,0,0,0-6.836,6.916v9.168" transform="translate(-94.588 -40.898)"/>
    <path id="Path_266" data-name="Path 266" class="cls-2" d="M344.3,214.584a6.83,6.83,0,0,0,6.836,6.836h5.79a6.83,6.83,0,0,0,6.836-6.836v-9.249a6.83,6.83,0,0,0-6.836-6.836h-5.79a6.9,6.9,0,0,0-6.836,6.916v9.168" transform="translate(-94.588 -38.862)"/>
    <path id="Path_267" data-name="Path 267" class="cls-7" d="M344.3,187.96a6.83,6.83,0,0,0,6.836,6.836h5.79a6.83,6.83,0,0,0,6.836-6.836V103.436a6.83,6.83,0,0,0-6.836-6.836h-5.79a6.83,6.83,0,0,0-6.836,6.836V187.96" transform="translate(-94.588 -18.912)"/>
    <path id="Path_268" data-name="Path 268" class="cls-4" d="M345.487,93.287l7.238-17.21c.724-1.769,1.93-1.769,2.654,0L362.7,93.689a7.129,7.129,0,0,1,.885,3.458v.643a6.762,6.762,0,0,1-6.755,6.836h-5.79a6.83,6.83,0,0,1-6.836-6.836v-.643a6.929,6.929,0,0,1,1.287-3.86" transform="translate(-94.569 -14.634)"/>
    <path id="Path_269" data-name="Path 269" class="cls-2" d="M351,83.315c.563-1.287,1.448-3.378,1.448-3.378l1.608-3.86c.724-1.769,1.93-1.769,2.654,0l1.608,3.86s.4,1.126,1.367,3.217C357.112,86.13,353.252,86.451,351,83.315Z" transform="translate(-95.9 -14.634)"/>
    <path id="Path_270" data-name="Path 270" class="cls-2" d="M363.6,211.8a6.865,6.865,0,0,1-6.434,5.549,8.1,8.1,0,0,1-7.158,4.745c-2.654,0-5.067-1.608-5.71-5.227v.241a6.83,6.83,0,0,0,6.836,6.836h5.79a6.817,6.817,0,0,0,6.675-5.549V211.8" transform="translate(-94.588 -41.465)"/>
    <path id="Path_271" data-name="Path 271" class="cls-8" d="M366.851,103.7h0a6.723,6.723,0,0,1-5.549,6.514c-.161,0-.241.08-.4.08,0,0,.08,40.292.161,65.223h5.871V104.183l-.08-.483" transform="translate(-97.838 -20.302)"/>
    <path id="Path_272" data-name="Path 272" class="cls-6" d="M366.949,103.7a7.366,7.366,0,0,1-5.549,6.434,6.7,6.7,0,0,0,5.549-6.434" transform="translate(-97.936 -20.302)"/>
    <path id="Path_273" data-name="Path 273" class="cls-9" d="M241.749,59.191c4.343-10.455,11.5-10.455,15.843,0L304.4,170.9c4.343,10.455-1.287,18.98-12.626,18.98h-84.2c-11.34,0-16.969-8.525-12.626-18.98L241.749,59.191" transform="translate(-65.061 -10.053)"/>
    <path id="Path_274" data-name="Path 274" class="cls-10" d="M260.985,61.062l46.806,111.707c4.343,10.455-1.287,18.98-12.626,18.98h-84.2c-1.448-12.787,7.56-11.018,19.06-9.329,11.9,1.769,26.459,3.619,34.5-10.857,11.42-27.424-5.388-114.843-3.539-110.5" transform="translate(-68.454 -11.924)"/>
    <path id="Path_275" data-name="Path 275" class="cls-2" d="M287.122,110.88c-.08,0-.161-.08-.322-.08.08.08.161.161.241.161A.079.079,0,0,0,287.122,110.88Z" transform="translate(-83.331 -21.692)"/>
    <path id="Path_276" data-name="Path 276" class="cls-2" d="M282.926,104.4a1.126,1.126,0,1,0,1.126,1.126A1.211,1.211,0,0,0,282.926,104.4Z" transform="translate(-82.352 -20.439)"/>
    <path id="Path_277" data-name="Path 277" class="cls-2" d="M286.426,106.711c.161,0,.322-.08.483-.08a5.448,5.448,0,0,0-.965-1.93,1.045,1.045,0,0,0-.643.965A1.2,1.2,0,0,0,286.426,106.711Z" transform="translate(-83.038 -20.498)"/>
    <path id="Path_278" data-name="Path 278" class="cls-2" d="M283.971,108.926a1.1,1.1,0,0,0-1.126-1.126,1.145,1.145,0,0,0-1.045.724,8.9,8.9,0,0,1,2.091.563C283.971,109.006,283.971,109.006,283.971,108.926Z" transform="translate(-82.352 -21.105)"/>
    <path id="Path_279" data-name="Path 279" class="cls-2" d="M286.326,109.971a1.162,1.162,0,0,0,.563-.161,7.037,7.037,0,0,0,.161-1.287v-.483a1.123,1.123,0,0,0-.724-.241,1.1,1.1,0,0,0-1.126,1.126.913.913,0,0,0,.241.643,4.489,4.489,0,0,1,.643.4Z" transform="translate(-83.018 -21.105)"/>
    <path id="Path_280" data-name="Path 280" class="cls-2" d="M282.826,103.628a1.11,1.11,0,0,0,1.046-.8,4.642,4.642,0,0,0-2.091-.724.725.725,0,0,0-.08.4A1.1,1.1,0,0,0,282.826,103.628Z" transform="translate(-82.333 -19.989)"/>
    <path id="Path_281" data-name="Path 281" class="cls-2" d="M275.926,106.652a1.126,1.126,0,1,0,0-2.252,1.893,1.893,0,0,0-.643.161l-.483.724v.161A1.169,1.169,0,0,0,275.926,106.652Z" transform="translate(-80.982 -20.439)"/>
    <path id="Path_282" data-name="Path 282" class="cls-2" d="M279.426,104.5a1.126,1.126,0,1,0,1.126,1.126A1.1,1.1,0,0,0,279.426,104.5Z" transform="translate(-81.667 -20.459)"/>
    <path id="Path_283" data-name="Path 283" class="cls-2" d="M275.826,107.8a1.1,1.1,0,0,0-1.126,1.126,1.429,1.429,0,0,0,.322.8,7.828,7.828,0,0,1,1.85-.885A1.065,1.065,0,0,0,275.826,107.8Z" transform="translate(-80.962 -21.105)"/>
    <path id="Path_284" data-name="Path 284" class="cls-2" d="M280.391,108.543a1.078,1.078,0,0,0-1.046-.643,1.046,1.046,0,0,0-1.046.885,11.746,11.746,0,0,1,1.769-.241A.245.245,0,0,1,280.391,108.543Z" transform="translate(-81.667 -21.124)"/>
    <path id="Path_285" data-name="Path 285" class="cls-2" d="M277.126,102.9a6.073,6.073,0,0,0-1.126.885h.08A1.113,1.113,0,0,0,277.126,102.9Z" transform="translate(-81.217 -20.145)"/>
    <path id="Path_286" data-name="Path 286" class="cls-2" d="M279.346,103.608a1.1,1.1,0,0,0,1.126-1.126,1.143,1.143,0,0,0-.161-.483h0a5.268,5.268,0,0,0-2.011.4v.08A1.084,1.084,0,0,0,279.346,103.608Z" transform="translate(-81.667 -19.969)"/>
    <path id="Path_287" data-name="Path 287" class="cls-2" d="M247.9,111.08c.08,0,.161-.08.322-.08-.08.08-.161.161-.241.161A.079.079,0,0,1,247.9,111.08Z" transform="translate(-75.716 -21.731)"/>
    <path id="Path_288" data-name="Path 288" class="cls-2" d="M251.526,104.5a1.126,1.126,0,1,1-1.126,1.126A1.281,1.281,0,0,1,251.526,104.5Z" transform="translate(-76.205 -20.459)"/>
    <path id="Path_289" data-name="Path 289" class="cls-2" d="M248.183,106.791c-.161,0-.322-.08-.483-.08a5.163,5.163,0,0,1,.965-2.011,1.045,1.045,0,0,1,.643.965A1.1,1.1,0,0,1,248.183,106.791Z" transform="translate(-75.676 -20.498)"/>
    <path id="Path_290" data-name="Path 290" class="cls-2" d="M250.6,109.026a1.1,1.1,0,0,1,1.126-1.126,1.145,1.145,0,0,1,1.046.724,8.9,8.9,0,0,0-2.091.563C250.6,109.187,250.6,109.106,250.6,109.026Z" transform="translate(-76.244 -21.124)"/>
    <path id="Path_291" data-name="Path 291" class="cls-2" d="M248.224,110.171a1.162,1.162,0,0,1-.563-.161,7.037,7.037,0,0,1-.161-1.287v-.483a1.123,1.123,0,0,1,.724-.241,1.1,1.1,0,0,1,1.126,1.126.913.913,0,0,1-.241.643,4.491,4.491,0,0,0-.643.4Z" transform="translate(-75.637 -21.144)"/>
    <path id="Path_292" data-name="Path 292" class="cls-2" d="M251.646,103.708a1.11,1.11,0,0,1-1.046-.8,5.964,5.964,0,0,1,2.091-.8.725.725,0,0,1,.08.4A1.121,1.121,0,0,1,251.646,103.708Z" transform="translate(-76.244 -19.989)"/>
    <path id="Path_293" data-name="Path 293" class="cls-2" d="M258.626,106.752a1.126,1.126,0,1,1,0-2.252,1.893,1.893,0,0,1,.643.161l.483.724v.161A1.291,1.291,0,0,1,258.626,106.752Z" transform="translate(-77.595 -20.459)"/>
    <path id="Path_294" data-name="Path 294" class="cls-2" d="M255.026,104.5a1.126,1.126,0,1,1-1.126,1.126A1.15,1.15,0,0,1,255.026,104.5Z" transform="translate(-76.89 -20.459)"/>
    <path id="Path_295" data-name="Path 295" class="cls-2" d="M258.743,107.9a1.1,1.1,0,0,1,1.126,1.126,1.429,1.429,0,0,1-.322.8,13.084,13.084,0,0,0-1.85-.885A.97.97,0,0,1,258.743,107.9Z" transform="translate(-77.632 -21.124)"/>
    <path id="Path_296" data-name="Path 296" class="cls-2" d="M254.2,108.543a1.078,1.078,0,0,1,1.046-.643,1.046,1.046,0,0,1,1.045.885,6.309,6.309,0,0,0-1.769-.161A.608.608,0,0,0,254.2,108.543Z" transform="translate(-76.949 -21.124)"/>
    <path id="Path_297" data-name="Path 297" class="cls-2" d="M257.6,103a6.073,6.073,0,0,1,1.126.885h-.08A1.113,1.113,0,0,1,257.6,103Z" transform="translate(-77.615 -20.165)"/>
    <path id="Path_298" data-name="Path 298" class="cls-2" d="M255.126,103.708A1.1,1.1,0,0,1,254,102.583a1.143,1.143,0,0,1,.161-.483h0a5.269,5.269,0,0,1,2.011.4v.08A1.032,1.032,0,0,1,255.126,103.708Z" transform="translate(-76.91 -19.989)"/>
    <path id="Path_299" data-name="Path 299" class="cls-2" d="M247.7,118c0,7.077,7,12.868,15.682,12.868s15.682-5.79,15.682-12.868Z" transform="translate(-75.676 -23.102)"/>
    <path id="Path_300" data-name="Path 300" class="cls-1" d="M263.813,131.494c-6.032,0-11.259-2.815-13.913-6.916a10.139,10.139,0,0,1,17.693,6.595A28.737,28.737,0,0,1,263.813,131.494Z" transform="translate(-76.107 -23.728)"/>
    <path id="Path_301" data-name="Path 301" class="cls-10" d="M272.613,138.5a9.148,9.148,0,0,1-6.514,3.136,9.314,9.314,0,0,1-7.4-2.815,14.556,14.556,0,0,0,6.916,1.689A12.188,12.188,0,0,0,272.613,138.5Z" transform="translate(-77.83 -27.115)"/>
    <path id="Path_302" data-name="Path 302" class="cls-11" d="M177.474,15.441A15.5,15.5,0,0,0,162.033,0H125.441A15.5,15.5,0,0,0,110,15.441V173.873h67.394c.08-44.554.08-158.432.08-158.432" transform="translate(-48.718)"/>
    <path id="Path_303" data-name="Path 303" class="cls-2" d="M143.88,39.5a2.736,2.736,0,0,0-.08.8,7.04,7.04,0,0,0,.161,1.287,9.406,9.406,0,0,1,1.608-.4Z" transform="translate(-55.335 -7.733)"/>
    <path id="Path_304" data-name="Path 304" class="cls-2" d="M154.69,39.386A5.011,5.011,0,0,0,149.7,34.4a3.017,3.017,0,0,0-.8.08l5.63,5.63A2.348,2.348,0,0,0,154.69,39.386Z" transform="translate(-56.334 -6.735)"/>
    <path id="Path_305" data-name="Path 305" class="cls-2" d="M151.375,40.367,146.308,35.3a5.119,5.119,0,0,0-1.608,1.608l3.217,3.217h.724A15.706,15.706,0,0,1,151.375,40.367Z" transform="translate(-55.512 -6.911)"/>
    <path id="Path_306" data-name="Path 306" class="cls-2" d="M171.88,39.5a2.736,2.736,0,0,0-.08.8,7.04,7.04,0,0,0,.161,1.287,9.406,9.406,0,0,1,1.608-.4Z" transform="translate(-60.817 -7.733)"/>
    <path id="Path_307" data-name="Path 307" class="cls-2" d="M182.71,39.386a5.011,5.011,0,0,0-4.986-4.986,2.226,2.226,0,0,0-.724.08l5.63,5.63C182.63,39.869,182.71,39.627,182.71,39.386Z" transform="translate(-61.835 -6.735)"/>
    <path id="Path_308" data-name="Path 308" class="cls-2" d="M179.375,40.367,174.308,35.3a5.118,5.118,0,0,0-1.608,1.608l3.217,3.217h.724A15.706,15.706,0,0,1,179.375,40.367Z" transform="translate(-60.993 -6.911)"/>
    <path id="Path_309" data-name="Path 309" class="cls-2" d="M144.3,49.5c0,7.077,7,12.868,15.682,12.868s15.682-5.79,15.682-12.868Z" transform="translate(-55.433 -9.691)"/>
    <path id="Path_310" data-name="Path 310" class="cls-3" d="M160.413,62.994c-6.032,0-11.259-2.815-13.913-6.916a10.139,10.139,0,0,1,17.693,6.595A19.447,19.447,0,0,1,160.413,62.994Z" transform="translate(-55.864 -10.317)"/>
    <path id="Path_311" data-name="Path 311" class="cls-11" d="M272.842,204.406a5.871,5.871,0,1,1-11.742,0V167.171c0-3.217,5.871-5.871,5.871-5.871s5.871,2.654,5.871,5.871v37.236" transform="translate(-78.3 -31.579)"/>
    <path id="Path_312" data-name="Path 312" class="cls-11" d="M272.7,153.956a1.956,1.956,0,0,1,0,2.574l-4.665,4.665a1.774,1.774,0,0,1-2.493-.08l-4.664-4.665a1.749,1.749,0,0,1,0-2.413l4.664-4.665a1.854,1.854,0,0,1,2.493-.08l4.665,4.665" transform="translate(-78.163 -29.141)"/>
    <path id="Path_313" data-name="Path 313" class="cls-12" d="M268.921,149.5c3.458,6.595-4.021,10.214-4.021,10.214l1.528,1.528h0a1.826,1.826,0,0,0,1.287.483,1.773,1.773,0,0,0,1.206-.483l4.664-4.665a1.957,1.957,0,0,0,0-2.574l-4.664-4.5" transform="translate(-79.044 -29.268)"/>
    <path id="Path_314" data-name="Path 314" class="cls-3" d="M167.942,133.606a5.871,5.871,0,1,1-11.742,0V96.371c0-3.217,5.871-5.871,5.871-5.871s5.871,2.654,5.871,5.871v37.236" transform="translate(-57.763 -17.718)"/>
    <path id="Path_315" data-name="Path 315" class="cls-12" d="M165.166,0c16.728,8.2,9.088,60-3.136,94.416v21.473a5.865,5.865,0,0,1-11.1,2.654c-9.168,15.6-18.738,26.781-24.931,36.592h54.607V152.8h0V20.749h0v-.563h0v-.563h0v-.483h0v-.483h0v-.483h0v-.4h0v-.4h0v-.643h0v-.563h0v-.4h0v-.322A15.655,15.655,0,0,0,165.166,0" transform="translate(-51.851)"/>
    <path id="Path_316" data-name="Path 316" class="cls-13" d="M168.1,117.4a132.959,132.959,0,0,1-8.123,18.819c-.965,1.85-2.011,3.619-2.976,5.308a5.865,5.865,0,0,0,11.1-2.654V117.4" transform="translate(-57.92 -22.984)"/>
    <path id="Path_317" data-name="Path 317" class="cls-1" d="M52.619,312.81c-10.374,0-18.819-6.353-18.819-14.154v-91.6c0-7.8,8.444-14.154,18.819-14.154H311.338c10.374,0,18.9,6.353,18.9,14.154v91.521c0,7.8-8.525,14.154-18.9,14.154H52.619" transform="translate(-33.8 -37.765)"/>
    <path id="Path_318" data-name="Path 318" class="cls-14" d="M315.9,192.9H242.474S226.067,285.547,57.1,312.729H315.819c10.375,0,18.9-6.353,18.9-14.154V207.054c.08-7.8-8.444-14.154-18.819-14.154" transform="translate(-38.362 -37.765)"/>
    <path id="Path_319" data-name="Path 319" class="cls-15" d="M415.869,223.268a8.974,8.974,0,0,1-13.913,11.34l-20.749-25.574a8.974,8.974,0,1,1,13.913-11.34l20.749,25.574" transform="translate(-101.417 -38.055)"/>
    <path id="Path_320" data-name="Path 320" class="cls-16" d="M419.612,236.506a4.925,4.925,0,0,1-4.906,4.906,4.874,4.874,0,0,1-4.906-4.906,4.906,4.906,0,0,1,9.812,0" transform="translate(-107.412 -45.342)"/>
    <path id="Path_321" data-name="Path 321" class="cls-3" d="M167.8,83.156a1.956,1.956,0,0,1,0,2.574l-4.664,4.665a1.774,1.774,0,0,1-2.493-.08l-4.665-4.665a1.749,1.749,0,0,1,0-2.413l4.665-4.665a1.854,1.854,0,0,1,2.493-.08l4.664,4.664" transform="translate(-57.626 -15.28)"/>
    <path id="Path_322" data-name="Path 322" class="cls-13" d="M164.121,78.7c3.458,6.595-4.021,10.214-4.021,10.214l1.528,1.528a1.9,1.9,0,0,0,1.287.563,1.773,1.773,0,0,0,1.206-.483l4.665-4.664a1.957,1.957,0,0,0,0-2.574L164.121,78.7" transform="translate(-58.526 -15.408)"/>
    <path id="Path_323" data-name="Path 323" class="cls-2" d="M277.438,99.159H265.295a2.353,2.353,0,0,0-2.413,2.332h0a5.736,5.736,0,0,0-5.469,0A2.42,2.42,0,0,0,255,99.079H242.857a2.246,2.246,0,0,0-1.769.724A23.466,23.466,0,0,0,234.9,98.6a5.647,5.647,0,0,0-3.941,1.045c-1.206.965-1.126,2.734-.8,4.182a.674.674,0,1,0,1.287-.4c-.241-1.126-.322-2.332.724-2.976a6.642,6.642,0,0,1,3.539-.4,19.269,19.269,0,0,1,4.745,1.045c0,.161-.08.241-.08.4v7.158a2.438,2.438,0,0,0,2.493,2.413H255a2.49,2.49,0,0,0,2.493-2.413v-5.71a.81.81,0,0,1,.241-.08,4.229,4.229,0,0,1,5.067.241h.08v5.469a2.37,2.37,0,0,0,2.413,2.413h12.144a2.351,2.351,0,0,0,2.332-2.413v-7.158A2.219,2.219,0,0,0,277.438,99.159ZM255.8,108.73a.892.892,0,0,1-.885.885H242.776a.893.893,0,0,1-.885-.885v-7.238a.893.893,0,0,1,.885-.885H254.92a.892.892,0,0,1,.885.885Zm22.518,0a.893.893,0,0,1-.885.885H265.295a.893.893,0,0,1-.885-.885v-7.238a.893.893,0,0,1,.885-.885h12.144a.893.893,0,0,1,.885.885Z" transform="translate(-72.2 -19.3)"/>
    <path id="Path_324" data-name="Path 324" class="cls-17" d="M412.591,234.931a4.906,4.906,0,1,1,0-9.812,4.874,4.874,0,0,1,4.906,4.906,4.925,4.925,0,0,1-4.906,4.906M399,198.5c8.123,17.854,6.836,36.914,6.836,36.914a8.955,8.955,0,0,0,7,3.3,8.638,8.638,0,0,0,5.63-2.011,9.09,9.09,0,0,0,1.287-12.707L399,198.5" transform="translate(-105.297 -38.862)"/>
    <path id="Path_325" data-name="Path 325" class="cls-18" d="M414.706,231.7a4.906,4.906,0,1,0,0,9.812,4.874,4.874,0,0,0,4.906-4.906,4.925,4.925,0,0,0-4.906-4.906" transform="translate(-107.412 -45.361)"/>
  </g>
</svg>
