<svg xmlns="http://www.w3.org/2000/svg" viewBox="0 0 681.119 524.64">
  <defs>
    <style>
      .cls-1 {
        fill: #f9e63a;
      }

      .cls-2 {
        fill: #dece3b;
      }

      .cls-3 {
        fill: #f7af3c;
      }

      .cls-4 {
        fill: #ececec;
      }

      .cls-5 {
        fill: #e5a43d;
      }

      .cls-6 {
        fill: #f24040;
      }

      .cls-7 {
        fill: #e14040;
      }

      .cls-8 {
        fill: #444;
      }

      .cls-9 {
        fill: #e7d53b;
      }

      .cls-10 {
        fill: #fff;
      }

      .cls-11 {
        fill: #ea44cb;
      }

      .cls-12 {
        fill: #e04040;
      }

      .cls-13 {
        fill: #d8d8d8;
      }

      .cls-14 {
        fill: #49e278;
      }

      .cls-15 {
        fill: #48d273;
      }

      .cls-16 {
        fill: #c9c9c9;
      }
    </style>
  </defs>
  <g id="Group_143" data-name="Group 143" transform="translate(-0.001 0.036)">
    <path id="Path_1195" data-name="Path 1195" class="cls-1" d="M744.172,181.887A45.547,45.547,0,0,0,698.785,136.5h-210.5A45.547,45.547,0,0,0,442.9,181.887V549.4H744.172V181.887" transform="translate(-80.702 -24.879)"/>
    <path id="Path_1196" data-name="Path 1196" class="cls-2" d="M464.835,491.029a138.031,138.031,0,0,0-8.178,12.185h.164a26.448,26.448,0,0,0,4.5-.327c4.661-.818,8.75-4.252,11.858-7.851a24.7,24.7,0,0,1-8.341-4.007m12.349-14.72c-4.007,4.253-7.524,8.5-10.713,12.594a20.821,20.821,0,0,0,8.423,3.762,17.255,17.255,0,0,0,2.535-15.62l-.245-.736m6.052-6.215c-1.39,1.39-2.7,2.78-4.007,4.089a15.219,15.219,0,0,1,.818,2.044,20.188,20.188,0,0,1-2.208,16.928,29.255,29.255,0,0,0,13.657-1.8,25.457,25.457,0,0,0,9.9-9.65,22.808,22.808,0,0,1-11.449-3.762,18.08,18.08,0,0,1-6.706-7.851m13.493-12.512c-4.089,3.516-7.933,7.033-11.449,10.468a15.233,15.233,0,0,0,6.052,7.687,20.04,20.04,0,0,0,11.285,3.353c2.29-5.234,2.617-10.958-.491-16.356a14.684,14.684,0,0,0-5.4-5.152m10.059-8.341c-2.78,2.208-5.4,4.334-7.933,6.542a16.343,16.343,0,0,1,5.479,5.806,20.467,20.467,0,0,1,1.145,17.5c3.68-.327,7.851-.736,12.839-4.171s7.2-7.605,9-11.2h-.572a22.034,22.034,0,0,1-11.2-2.862,17.353,17.353,0,0,1-8.75-11.613m12.43-9.486c-3.435,2.535-6.788,5.07-9.977,7.524.082,4.253,3.108,8.669,7.687,11.285a19.933,19.933,0,0,0,9.977,2.453,11.521,11.521,0,0,0,1.636-.082c1.8-5.316,1.554-10.958-2.044-16.029a13.587,13.587,0,0,0-7.278-5.152m9.486-6.788q-3.557,2.453-6.869,4.907a15.779,15.779,0,0,1,6.788,5.643,20.432,20.432,0,0,1,2.78,17.174,28.706,28.706,0,0,0,11.694-5.316c3.762-2.78,6.869-8.014,8.014-12.43a25.261,25.261,0,0,1-4.743.491,21.8,21.8,0,0,1-7.36-1.227c-4.743-1.8-8.587-5.234-10.3-9.241m15.783-10.549c-4.743,3.026-9.241,6.052-13.493,9,1.308,3.516,4.661,6.624,9,8.178a19.286,19.286,0,0,0,6.461,1.063,22.031,22.031,0,0,0,5.4-.654c.818-5.561-.327-11.122-4.661-15.456a27.633,27.633,0,0,0-2.7-2.126m9.159-5.806c-2.29,1.39-4.58,2.862-6.788,4.253a14.01,14.01,0,0,1,2.044,1.8,20.8,20.8,0,0,1,5.643,16.519c3.6-1.308,8.178-4.007,10.795-7.2s5.724-8.669,6.461-13.166a23.338,23.338,0,0,1-7.033,1.063,22.229,22.229,0,0,1-5.07-.572,20.164,20.164,0,0,1-6.052-2.7m16.846-10.059c-4.989,2.862-9.732,5.725-14.311,8.5a14.816,14.816,0,0,0,4.253,1.636,16.883,16.883,0,0,0,4.416.491,21.886,21.886,0,0,0,7.36-1.308,19,19,0,0,0-1.717-9.323M590.856,395.1c-6.3,3.435-12.349,6.788-18.073,10.141a22.157,22.157,0,0,1,2.126,9.486c3.353-1.636,8.423-5.234,10.713-8.423a38.477,38.477,0,0,0,5.234-11.2M698.8,136.6H657.914c85.7,51.112,60.271,190.054-63.869,256.867a.08.08,0,0,0-.082.082,39.692,39.692,0,0,1-6.215,14.475c-3.189,4.5-8.914,8.1-13,9.813-.491,4.825-4.5,12.185-7.278,15.865-2.781,3.6-9.077,7.2-13.33,8.5-.981,4.743-3.762,11.285-9.4,15.374-5.724,4.089-9.732,5.4-14.229,5.97a33.841,33.841,0,0,1-10.631,13.657c-4.661,3.189-11.122,4.5-15.456,4.661-2.208,4.334-7.442,9.813-11.613,11.858-3.026,1.472-7.769,2.29-12.1,2.29a26.813,26.813,0,0,1-4.58-.327c-3.026,3.925-8.26,8.587-14.638,9.732a30.6,30.6,0,0,1-5.316.491h-.981C446.108,522.023,443,536.579,443,549.5H744.272V181.905A45.6,45.6,0,0,0,698.8,136.6" transform="translate(-80.721 -24.897)"/>
    <path id="Path_1197" data-name="Path 1197" class="cls-3" d="M216.758,111.987A45.547,45.547,0,0,0,171.371,66.6H63.587A45.547,45.547,0,0,0,18.2,111.987V536.663H216.758V111.987" transform="translate(-3.316 -12.142)"/>
    <path id="Path_1198" data-name="Path 1198" class="cls-4" d="M18.132,520.463a98.408,98.408,0,0,0,0,15.538V520.463m198.558-43.67v63.46h.327V477.2a1.784,1.784,0,0,1-.327-.409m.327-24.288c-.082.164-.245.327-.327.491v17.01h.327V452.5M205.9,86.3a45.263,45.263,0,0,1,10.795,29.277V448.743l.327-.327V115.577A44.689,44.689,0,0,0,205.9,86.3" transform="translate(-3.248 -15.732)"/>
    <path id="Path_1199" data-name="Path 1199" class="cls-5" d="M216.758,449.8l-.491.736c-3.108,5.4-2.862,11.122-.491,16.356h.981V449.8m-15.62-22.489c-3.353,0-6.788,1.881-9.241,5.4a17.37,17.37,0,0,0-2.044,16.029c.572,0,1.063.082,1.636.082a20.836,20.836,0,0,0,9.977-2.453c4.661-2.617,7.687-7.115,7.687-11.449a7.136,7.136,0,0,0-3.762-6.46,7.924,7.924,0,0,0-4.252-1.145m-21.344-18.973a12.065,12.065,0,0,0-8.5,3.925,17.26,17.26,0,0,0-4.661,15.456,22.03,22.03,0,0,0,5.4.654,19.286,19.286,0,0,0,6.461-1.063c5.07-1.8,8.75-5.725,9.486-9.977a7.378,7.378,0,0,0-2.617-7.115,9.127,9.127,0,0,0-5.561-1.881M129.91,393.861C86.485,458.712,23.27,460.02,18.2,517.347v15.538c.082,1.39.245,2.78.409,4.171h198.15V473.6a22.394,22.394,0,0,1-2.7-4.171c-4.416-.245-11.694-1.963-15.783-4.825s-8.587-9-10.386-13.493c-4.416-.572-11.2-3.844-14.72-6.379-3.516-2.617-7.933-10.141-8.914-14.965-4.252-1.308-10.877-5.152-13.821-8.832s-6.215-10.713-6.788-15.538c-4.007-1.717-10.222-6.379-12.676-9.813-.327-.491-.654-1.063-1.063-1.717m30.422-8.423a12.835,12.835,0,0,0-7.933,3.108c-4.825,3.925-6.542,9.4-6.215,15.129a20.878,20.878,0,0,0,11.776.818c5.152-1.308,9.323-4.825,10.468-9.077a7.546,7.546,0,0,0-1.881-7.442,8.519,8.519,0,0,0-6.215-2.535m-13.166-22.98c-2.7,5.806-5.479,11.2-8.178,16.356,4.989-1.39,8.914-4.825,10.059-8.914a7.28,7.28,0,0,0-1.881-7.442M184.947,69.2q-3.189,1.472-5.888,2.7c44.733,38.436,10.631,198.64-30.667,288.024.245.164.409.409.654.572a10.025,10.025,0,0,1,2.617,9.977c-1.472,5.152-6.3,9.4-12.43,10.877-.572.164-1.227.245-1.881.409-1.881,3.353-3.844,6.624-5.888,9.732.572.981,1.145,1.8,1.554,2.372a39.534,39.534,0,0,0,10.468,8.587,20.577,20.577,0,0,1,7.278-16.029,15.316,15.316,0,0,1,9.568-3.68,10.994,10.994,0,0,1,8.1,3.353,10.025,10.025,0,0,1,2.617,9.977c-1.472,5.152-6.3,9.4-12.43,10.877a21.679,21.679,0,0,1-5.07.572,23.338,23.338,0,0,1-7.033-1.063c.818,4.5,3.6,9.65,5.725,12.594s7.933,6.461,11.531,7.769a20.523,20.523,0,0,1,5.643-16.519,14.866,14.866,0,0,1,10.386-4.743,11.379,11.379,0,0,1,7.2,2.535,9.753,9.753,0,0,1,3.6,9.568c-.9,5.234-5.316,9.9-11.2,12.021a21.8,21.8,0,0,1-7.36,1.227,25.262,25.262,0,0,1-4.743-.491c1.227,4.416,4.58,9.65,7.524,12.021a32.119,32.119,0,0,0,12.185,5.724,20.432,20.432,0,0,1,2.78-17.173c3.026-4.253,7.2-6.542,11.367-6.542a11.553,11.553,0,0,1,5.561,1.472,9.817,9.817,0,0,1,5.152,8.75c0,5.234-3.516,10.631-9.077,13.739a22.63,22.63,0,0,1-11.285,2.862H191a30.913,30.913,0,0,0,8.832,11.04c3.516,2.7,9.323,3.925,13.085,4.253a20.441,20.441,0,0,1,1.145-17.5,15.59,15.59,0,0,1,2.78-3.6V112.3a45.263,45.263,0,0,0-10.795-29.277,48.776,48.776,0,0,0-21.1-13.821" transform="translate(-3.316 -12.616)"/>
    <path id="Path_1200" data-name="Path 1200" class="cls-6" d="M807.26,143.027l-7.278-3.68,1.227-2.535a27.925,27.925,0,0,0-12.43-37.7l-.164-.082a28.236,28.236,0,0,0-37.945,12.512l-1.227,2.535-7.36-3.68a10.863,10.863,0,1,0-9.65,19.463l7.605,3.762,50.539,25.27,7.2,3.6a10.81,10.81,0,0,0,14.638-4.825,11.152,11.152,0,0,0-5.152-14.638" transform="translate(-132.341 -17.503)"/>
    <path id="Path_1201" data-name="Path 1201" class="cls-7" d="M796.137,105.1a28.224,28.224,0,0,0-7.36-5.316l-.164-.082c16.765,28.3-13.739,44.9-61.252,16.11v.164a10.907,10.907,0,0,0,2.126,12.43,10.165,10.165,0,0,0,2.862,2.044l7.605,3.762,50.539,25.27,7.2,3.6a10.991,10.991,0,0,0,12.594-1.963,10.648,10.648,0,0,0,2.044-2.862,10.882,10.882,0,0,0-2.044-12.512,11.327,11.327,0,0,0-2.944-2.126l-7.278-3.68,1.227-2.535a27.85,27.85,0,0,0-5.152-32.3" transform="translate(-132.34 -18.173)"/>
    <path id="Path_1202" data-name="Path 1202" class="cls-8" d="M608.794,257.693h6.133v5.97a44.6,44.6,0,0,1,9.241,1.472c.245-.409.491-.9.736-1.308h-5.643v-6.133h6.133v4.988a15.034,15.034,0,0,0,.981-5.4,14.716,14.716,0,0,0-.981-5.4v1.554h-6.133v-6.133h3.353a14.779,14.779,0,0,0-7.605-4.661v.409h-6.133V242.4a15.366,15.366,0,0,0-8.914,4.907h4.661v6.133H598.49v-4.089a14.811,14.811,0,0,0-2.29,8.014,15.485,15.485,0,0,0,2.535,8.423,40.468,40.468,0,0,1,10.141-2.044v-6.052Zm0-10.386h6.133v6.133h-6.133Zm-4.334,16.519h-6.133v-6.133h6.133Z" transform="translate(-108.636 -44.175)"/>
    <path id="Path_1203" data-name="Path 1203" class="cls-8" d="M524.476,257.693h6.133v5.97a44.6,44.6,0,0,1,9.241,1.472c.245-.409.491-.9.736-1.308h-5.724v-6.133h6.133v4.988a15.033,15.033,0,0,0,.981-5.4,14.715,14.715,0,0,0-.981-5.4v1.554h-6.133v-6.133h3.353a14.779,14.779,0,0,0-7.605-4.661v.409h-6.133V242.4a15.366,15.366,0,0,0-8.914,4.907h4.661v6.133H514.09v-4.089a14.811,14.811,0,0,0-2.29,8.014,15.484,15.484,0,0,0,2.535,8.423,40.468,40.468,0,0,1,10.141-2.044Zm0-10.386h6.133v6.133h-6.133Zm-4.253,16.519H514.09v-6.133h6.133Z" transform="translate(-93.257 -44.175)"/>
    <path id="Path_1204" data-name="Path 1204" class="cls-9" d="M544.7,352c6.215,6.461,13.412,10.141,20.935,10.141h.654c7.2-.164,13.821-3.68,19.545-9.65-7.278,4.5-13.575,6.461-19.627,6.461-6.869-.082-13.575-2.617-21.508-6.951" transform="translate(-99.252 -64.146)"/>
    <path id="Path_1205" data-name="Path 1205" class="cls-10" d="M508.2,290.882a34.971,34.971,0,0,0,3.108,14.557h84.641v3.108H512.861c8.178,14.72,26.251,24.942,47.268,24.942,28.7,0,51.929-19.136,51.929-42.688Z" transform="translate(-92.601 -52.994)"/>
    <path id="Path_1206" data-name="Path 1206" class="cls-1" d="M614.347,315l-5.724-2.944-5.725,3.026,1.063-6.3-4.661-4.5,6.379-.981,2.78-5.806,2.862,5.724,6.379.9-4.5,4.5Z" transform="translate(-109.201 -54.215)"/>
    <path id="Path_1207" data-name="Path 1207" class="cls-8" d="M229.607,187.5a12.482,12.482,0,0,1,.245,2.453,14.385,14.385,0,0,1-.491,3.762q-2.331-.736-4.661-1.227Z" transform="translate(-40.943 -34.172)"/>
    <path id="Path_1208" data-name="Path 1208" class="cls-8" d="M195.4,187.257A14.589,14.589,0,0,1,209.957,172.7a21.552,21.552,0,0,1,2.29.164l-16.6,16.6A10.151,10.151,0,0,1,195.4,187.257Z" transform="translate(-35.604 -31.475)"/>
    <path id="Path_1209" data-name="Path 1209" class="cls-8" d="M204.4,190.1l14.8-14.8a15.173,15.173,0,0,1,4.743,4.661l-9.4,9.4c-.654,0-1.39-.082-2.044-.082A51.219,51.219,0,0,0,204.4,190.1Z" transform="translate(-37.244 -31.949)"/>
    <path id="Path_1210" data-name="Path 1210" class="cls-8" d="M148.507,187.5a12.481,12.481,0,0,1,.245,2.453,14.384,14.384,0,0,1-.491,3.762q-2.331-.736-4.661-1.227Z" transform="translate(-26.166 -34.172)"/>
    <path id="Path_1211" data-name="Path 1211" class="cls-8" d="M114.3,187.257A14.589,14.589,0,0,1,128.857,172.7a21.552,21.552,0,0,1,2.29.164l-16.6,16.6A6.792,6.792,0,0,1,114.3,187.257Z" transform="translate(-20.827 -31.475)"/>
    <path id="Path_1212" data-name="Path 1212" class="cls-8" d="M123.2,190.1,138,175.3a15.173,15.173,0,0,1,4.743,4.661l-9.4,9.4c-.654,0-1.39-.082-2.044-.082A52.222,52.222,0,0,0,123.2,190.1Z" transform="translate(-22.449 -31.949)"/>
    <path id="Path_1213" data-name="Path 1213" class="cls-8" d="M116.3,213.3c0,20.935,20.69,37.945,46.123,37.945,25.515,0,46.123-17.01,46.123-37.945H116.3Z" transform="translate(-21.191 -38.873)"/>
    <path id="Path_1214" data-name="Path 1214" class="cls-11" d="M163.689,252.922c-17.746,0-33.2-8.26-40.889-20.363a29.782,29.782,0,0,1,52.093,19.218A55.975,55.975,0,0,1,163.689,252.922Z" transform="translate(-22.376 -40.549)"/>
    <path id="Path_1215" data-name="Path 1215" class="cls-5" d="M144.7,269.1a26.833,26.833,0,0,0,19.3,9.159c.654,0,1.227.082,1.881.082a27.677,27.677,0,0,0,20.036-8.423,44.4,44.4,0,0,1-20.281,5.07h-.981A34.977,34.977,0,0,1,144.7,269.1" transform="translate(-26.366 -49.04)"/>
    <path id="Path_1216" data-name="Path 1216" class="cls-8" d="M583.705,322.772l-2.617.164c.491,22.244-5.725,31.648-9.4,36.719h0a39.241,39.241,0,0,1-9.323,9.9,20.674,20.674,0,0,0-9.65-14.393c-6.624-3.925-13.9-3.026-17.746,2.126a9.96,9.96,0,0,0-1.063,10.3c2.208,4.907,7.605,8.423,13.9,9a23.137,23.137,0,0,0,12.267-2.453,26.835,26.835,0,0,1-3.353,14.066c-2.617,4.661-7.2,7.115-10.468,9a20.454,20.454,0,0,0-8.1-15.62c-6.052-4.5-13.33-4.253-17.664.572a9.952,9.952,0,0,0-2.044,10.141c1.717,5.07,6.788,9.077,12.921,10.222a21.711,21.711,0,0,0,12.021-1.145,30.5,30.5,0,0,1-4.253,12.839c-2.781,4.907-8.341,7.687-11.04,8.75a20.576,20.576,0,0,0-7.278-16.029c-5.806-4.743-13.085-4.907-17.664-.409a10.025,10.025,0,0,0-2.617,9.977c1.472,5.152,6.3,9.4,12.43,10.877a23.055,23.055,0,0,0,12.1-.491,35.988,35.988,0,0,1-5.724,13.085c-2.29,3.108-7.278,6.788-10.713,8.423a20.576,20.576,0,0,0-7.278-16.029c-5.806-4.743-13.085-4.907-17.664-.409a10.025,10.025,0,0,0-2.617,9.977c1.472,5.152,6.3,9.4,12.43,10.877a23.056,23.056,0,0,0,12.1-.491c-.818,4.5-3.844,9.977-6.461,13.166s-7.2,5.888-10.795,7.2a20.523,20.523,0,0,0-5.643-16.519c-5.316-5.316-12.512-6.215-17.582-2.126a9.753,9.753,0,0,0-3.6,9.568c.9,5.234,5.316,9.9,11.2,12.021a22.267,22.267,0,0,0,12.1.736c-1.227,4.416-4.252,9.732-8.014,12.43a28.706,28.706,0,0,1-11.694,5.316,20.432,20.432,0,0,0-2.78-17.174c-4.334-6.133-11.285-8.26-16.928-5.07a9.589,9.589,0,0,0-5.07,8.75c0,5.234,3.516,10.631,9.077,13.739a22.627,22.627,0,0,0,11.776,2.781c-1.8,3.6-4.007,7.769-9,11.2s-9.159,3.844-12.839,4.171a20.441,20.441,0,0,0-1.145-17.5c-3.762-6.542-10.549-9.241-16.437-6.542a10.035,10.035,0,0,0-5.97,8.423c-.491,5.316,2.617,11.04,7.769,14.557a22.319,22.319,0,0,0,11.449,3.762,26.035,26.035,0,0,1-9.9,9.65c-3.844,1.881-9.4,2.29-13.657,1.8a20.488,20.488,0,0,0,2.208-16.928c-2.372-7.2-8.423-11.2-14.72-9.813a9.67,9.67,0,0,0-7.442,6.869c-1.472,4.988.327,11.04,4.58,15.538a22.573,22.573,0,0,0,10.713,6.133c-3.108,3.516-7.2,7.033-11.858,7.851a32.259,32.259,0,0,1-13.9-.981,20.457,20.457,0,0,0,5.888-16.519c-.9-7.524-5.888-12.676-12.43-12.594a10.077,10.077,0,0,0-8.832,5.4c-2.535,4.661-2.044,11.122,1.308,16.437a22.822,22.822,0,0,0,9,8.1c-3.6,2.944-9.486,4.58-13.33,4.825a32.3,32.3,0,0,1-13.33-2.29,20.591,20.591,0,0,0,7.769-16.11c-.082-7.524-4.661-13.166-11.122-13.739a10.015,10.015,0,0,0-9.323,4.5c-3.026,4.5-3.189,11.122-.327,16.846a22.576,22.576,0,0,0,7.851,8.75,25.946,25.946,0,0,1-25.515,0,22.576,22.576,0,0,0,7.851-8.75c2.862-5.725,2.7-12.349-.327-16.846a9.937,9.937,0,0,0-9.323-4.5c-6.461.572-10.958,6.215-11.122,13.739a20.591,20.591,0,0,0,7.769,16.11c-3.516,1.554-9.323,3.026-13.739,2.535a26.517,26.517,0,0,1-12.921-5.152,22.234,22.234,0,0,0,9-8.1c3.353-5.316,3.844-11.776,1.308-16.437a10.077,10.077,0,0,0-8.832-5.4c-6.461-.082-11.531,5.07-12.43,12.594a20.457,20.457,0,0,0,5.888,16.519,29.058,29.058,0,0,1-13.9.409,21.926,21.926,0,0,1-11.776-7.278,22.969,22.969,0,0,0,10.713-6.133c4.334-4.5,6.133-10.549,4.58-15.538a9.67,9.67,0,0,0-7.442-6.869c-6.3-1.39-12.349,2.617-14.72,9.813a20.188,20.188,0,0,0,2.208,16.928,29.877,29.877,0,0,1-13.739-2.208,23.19,23.19,0,0,1-9.732-9.159,22.807,22.807,0,0,0,11.449-3.762c5.152-3.516,8.26-9.241,7.769-14.557a9.929,9.929,0,0,0-5.97-8.423c-5.888-2.7-12.594.082-16.438,6.542a20.467,20.467,0,0,0-1.145,17.5c-3.68-.327-9.486-1.554-13.085-4.252a30.914,30.914,0,0,1-8.832-11.04,23.22,23.22,0,0,0,11.776-2.78c5.479-3.108,9-8.423,9.077-13.739a9.575,9.575,0,0,0-5.152-8.75c-5.643-3.189-12.594-1.063-16.928,5.07a20.432,20.432,0,0,0-2.78,17.174,32.118,32.118,0,0,1-12.185-5.724c-2.944-2.372-6.3-7.605-7.524-12.021a23.986,23.986,0,0,0,12.1-.736c5.888-2.126,10.3-6.788,11.2-12.021a9.753,9.753,0,0,0-3.6-9.568c-4.988-4.089-12.185-3.189-17.5,2.126a20.523,20.523,0,0,0-5.643,16.519c-3.6-1.308-9.4-4.825-11.531-7.769s-4.988-8.1-5.724-12.594a23.054,23.054,0,0,0,12.1.491c6.133-1.472,10.958-5.806,12.43-10.877a9.806,9.806,0,0,0-2.617-9.977c-4.58-4.58-11.858-4.416-17.664.409a20.712,20.712,0,0,0-7.278,16.029,39.534,39.534,0,0,1-10.468-8.587c-1.8-2.372-5.07-8.423-5.888-12.921a23.055,23.055,0,0,0,12.1.491c6.133-1.472,10.958-5.806,12.43-10.877a9.806,9.806,0,0,0-2.617-9.977c-4.58-4.58-11.858-4.416-17.664.409a20.712,20.712,0,0,0-7.278,16.029,33.064,33.064,0,0,1-10.222-8.669c-2.453-3.271-5.07-9.159-5.479-13.166a23.607,23.607,0,0,0,12.43,1.308c6.133-1.145,11.285-5.234,13-10.222a10.025,10.025,0,0,0-2.044-10.141c-4.334-4.825-11.694-5.07-17.91-.491a20.342,20.342,0,0,0-7.933,13.412l-.245,1.963c-3.189-1.8-7.2-5.97-9.241-9.077a29.01,29.01,0,0,1-4.252-13.821,23.263,23.263,0,0,0,12.267,2.453c6.3-.572,11.694-4.089,13.9-9a10.162,10.162,0,0,0-1.063-10.3c-3.844-5.234-11.122-6.052-17.746-2.126a20.674,20.674,0,0,0-9.65,14.393,40.339,40.339,0,0,1-8.914-9.241h0c-3.6-4.907-10.3-14.148-9.9-37.291l-2.617-.818c-.491,24.043,6.542,33.284,10.3,38.191h0a35.332,35.332,0,0,0,10.713,11.367c-.327,4.907,2.126,13.085,4.661,17.174,2.535,4.007,7.605,8.832,11.449,10.795.245,5.152,3.762,12.839,6.052,16.029,2.372,3.189,8.5,8.341,12.512,10.141.491,4.825,4.334,12.267,6.788,15.783,2.372,3.435,8.587,8.1,12.676,9.813.491,4.825,3.762,11.776,6.788,15.538,2.944,3.68,9.568,7.524,13.821,8.832.981,4.743,5.4,12.349,8.914,14.965s10.3,5.806,14.72,6.379c1.8,4.58,6.3,10.713,10.386,13.493,4.089,2.862,11.367,4.58,15.783,4.825,2.208,4.334,7.115,9.732,11.94,11.694,4.825,1.881,11.367,2.944,16.356,2.126,3.026,3.925,8.341,8.26,14.638,9.241,6.379.981,12.1.572,16.192-.981a25.92,25.92,0,0,0,15.783,6.542,27.47,27.47,0,0,0,16.11-3.435,28.806,28.806,0,0,0,30.912,0c3.925,2.044,10.141,3.353,16.11,3.108a28.573,28.573,0,0,0,15.783-6.215,30.551,30.551,0,0,0,16.192,1.554c6.46-1.145,11.613-5.806,14.638-9.732,4.988.818,12.43.164,16.6-1.963,4.252-2.044,9.4-7.605,11.613-11.858,4.416-.245,10.877-1.472,15.456-4.661a32.636,32.636,0,0,0,10.631-13.657c4.416-.572,8.505-1.881,14.229-5.97s8.423-10.631,9.4-15.374c4.252-1.308,10.549-4.907,13.33-8.5s6.706-11.04,7.278-15.865c4.007-1.717,9.813-5.4,13-9.813,3.189-4.5,5.888-10.958,6.461-15.7,4.007-1.717,9.977-4.334,13.493-10.468s4.58-10.631,4.825-15.374c3.925-1.963,10.059-5.4,12.839-10.713a35.118,35.118,0,0,0,3.68-17.173c3.516-2.208,7.2-6.133,10.795-11.04h0c4.089-5.724,11.04-14.556,10.549-38.518m-35.819,51.193c-5.316-.491-9.9-3.435-11.694-7.442a7.31,7.31,0,0,1,.818-7.605,8.878,8.878,0,0,1,7.278-3.516,13.567,13.567,0,0,1,6.951,2.044,17.462,17.462,0,0,1,8.505,13.739,20.527,20.527,0,0,1-11.858,2.78m-435.88-16.519c5.4-3.189,11.285-2.617,14.229,1.472a7.31,7.31,0,0,1,.818,7.605c-1.8,4.007-6.379,6.951-11.694,7.442a19.891,19.891,0,0,1-11.858-2.78,17.462,17.462,0,0,1,8.5-13.739m14.475,26.333c5.07-3.68,10.958-3.68,14.393.164a7.425,7.425,0,0,1,1.554,7.524c-1.39,4.171-5.724,7.524-10.958,8.5a20.308,20.308,0,0,1-12.1-1.636,17.867,17.867,0,0,1,7.115-14.557m17.664,25.27c4.743-3.925,10.549-4.089,14.148-.572a7.2,7.2,0,0,1,1.881,7.442c-1.145,4.252-5.316,7.769-10.468,9.077a20.281,20.281,0,0,1-11.776-.818c-.327-5.725,1.39-11.2,6.215-15.129m19.382,25.6c4.743-3.925,10.549-4.089,14.148-.572a7.2,7.2,0,0,1,1.881,7.442c-1.145,4.253-5.316,7.769-10.468,9.077a20.266,20.266,0,0,1-11.776-.818c-.327-5.724,1.39-11.2,6.215-15.129m18.891,23.716c4.334-4.334,10.059-5.152,13.984-1.963a7.149,7.149,0,0,1,2.617,7.115c-.736,4.253-4.5,8.178-9.486,9.977a20.3,20.3,0,0,1-11.858.409c-.818-5.643.409-11.2,4.743-15.538m20.608,20.445c3.516-4.988,9.077-6.788,13.493-4.334a7.136,7.136,0,0,1,3.762,6.461c0,4.334-3.026,8.832-7.687,11.449a20.829,20.829,0,0,1-11.531,2.453c-1.8-5.4-1.554-10.958,1.963-16.029m24.37,17.91c2.29-4.007,5.888-6.3,9.486-6.3a8.749,8.749,0,0,1,3.516.736,7.284,7.284,0,0,1,4.416,6.3c.409,4.334-2.208,9.159-6.624,12.185A20.04,20.04,0,0,1,226.9,512.99c-2.29-5.234-2.617-10.877.491-16.274m27.232,29.767a17.255,17.255,0,0,1-2.535-15.62c1.636-5.07,5.561-8.26,9.732-8.26a7.425,7.425,0,0,1,1.881.245,7.077,7.077,0,0,1,5.479,5.07c1.227,4.089-.327,9.159-4.007,12.921a20.382,20.382,0,0,1-10.549,5.643m24.125-7.442c.736-6.052,4.661-10.549,9.65-10.549h.164c2.862,0,5.152,1.8,6.542,4.334,2.126,3.844,1.636,9.486-1.227,13.984a20.606,20.606,0,0,1-9,7.524,17.659,17.659,0,0,1-6.133-15.293m29.849,3.925c.082-6.133,3.68-10.713,8.669-11.122h.736a7.349,7.349,0,0,1,6.215,3.353c2.535,3.68,2.617,9.241.164,14.148a19.993,19.993,0,0,1-7.933,8.341c-4.743-3.516-7.933-8.423-7.851-14.72M346.874,537.6a20.473,20.473,0,0,1-7.933-8.341c-2.453-4.907-2.372-10.468.164-14.148a7.249,7.249,0,0,1,6.215-3.353h.736c4.988.409,8.587,4.988,8.669,11.122,0,6.379-3.189,11.285-7.851,14.72m31.567-3.026a19.734,19.734,0,0,1-9-7.605c-2.862-4.5-3.353-10.3-1.227-14.148,1.39-2.535,3.68-4.334,6.542-4.334h.164c4.989,0,8.914,4.5,9.65,10.549a18.592,18.592,0,0,1-6.133,15.538m30.176-8.1a20.489,20.489,0,0,1-10.549-5.725c-3.68-3.844-5.234-8.914-4.007-12.921a7.344,7.344,0,0,1,5.479-5.07,7.423,7.423,0,0,1,1.881-.245c4.253,0,8.1,3.189,9.732,8.26a17.381,17.381,0,0,1-2.535,15.7M436.34,512.99a20.708,20.708,0,0,1-11.285-3.353c-4.416-3.026-7.033-7.769-6.624-12.185a7.385,7.385,0,0,1,4.416-6.3,9.045,9.045,0,0,1,3.516-.736c3.6,0,7.2,2.29,9.486,6.3,3.108,5.4,2.78,11.04.491,16.274m25.842-18.155a20.621,20.621,0,0,1-11.613-2.453c-4.661-2.617-7.687-7.115-7.687-11.449a7.136,7.136,0,0,1,3.762-6.461,8.659,8.659,0,0,1,4.171-1.145c3.353,0,6.788,1.881,9.241,5.4,3.68,5.152,3.925,10.713,2.126,16.11m23.307-21.017a21.133,21.133,0,0,1-11.858-.409c-5.07-1.8-8.75-5.724-9.486-9.977a7.378,7.378,0,0,1,2.617-7.115,8.5,8.5,0,0,1,5.479-1.963,12.065,12.065,0,0,1,8.505,3.925c4.416,4.416,5.561,9.977,4.743,15.538m20.445-24.125a20.281,20.281,0,0,1-11.776.818c-5.152-1.308-9.323-4.825-10.468-9.077a7.546,7.546,0,0,1,1.881-7.442,8.519,8.519,0,0,1,6.215-2.535,12.835,12.835,0,0,1,7.932,3.108c4.825,4.007,6.542,9.486,6.215,15.129m19.382-25.515a20.282,20.282,0,0,1-11.776.818c-5.152-1.308-9.323-4.825-10.468-9.077a7.547,7.547,0,0,1,1.881-7.442,8.519,8.519,0,0,1,6.215-2.535,12.835,12.835,0,0,1,7.932,3.108c4.825,3.925,6.542,9.4,6.215,15.129m6.46-24.288c-5.234-.981-9.568-4.334-10.958-8.5a7.287,7.287,0,0,1,1.554-7.524A8.847,8.847,0,0,1,529,381a12.854,12.854,0,0,1,7.524,2.7c4.988,3.68,7.033,9,7.033,14.72a20.21,20.21,0,0,1-11.776,1.472" transform="translate(-14.444 -58.716)"/>
    <path id="Path_1217" data-name="Path 1217" class="cls-6" d="M734.172,228.2l-.082-.082c-.572-.327-2.7-1.472-3.271-1.8L717,218.791c-.327-.164-.573-.327-.9-.491a8.617,8.617,0,0,0-.9-.572,9.957,9.957,0,0,0-13.494,3.925l-7.524,13.821a9.936,9.936,0,0,0,3.925,13.493c.327.164.654.245.981.409a8.924,8.924,0,0,0,.9.491l6.706,3.68L686.25,291l-6.706-3.68a4.886,4.886,0,0,0-.9-.491,8.623,8.623,0,0,0-.9-.572,9.956,9.956,0,0,0-13.493,3.925L656.728,304a9.936,9.936,0,0,0,3.925,13.493,4.382,4.382,0,0,0,.9.409,8.613,8.613,0,0,0,.9.572L676.273,326c.572.327,2.7,1.472,3.271,1.8l.082.082a11.546,11.546,0,0,0,15.7-4.58L738.752,243.9a11.5,11.5,0,0,0-4.58-15.7" transform="translate(-119.442 -39.457)"/>
    <path id="Path_1218" data-name="Path 1218" class="cls-12" d="M734.089,230.8c-19.79,49.64-41.871,81.124-59.7,81.124-5.561,0-10.713-3.026-15.293-9.568-.654,1.472-2.372,4.253-2.372,4.253h0a10.315,10.315,0,0,0-1.227,4.825,9.877,9.877,0,0,0,5.152,8.669,4.384,4.384,0,0,0,.9.409,8.605,8.605,0,0,0,.9.572l13.821,7.524c.573.327,2.7,1.472,3.271,1.8l.082.082a11.609,11.609,0,0,0,15.7-4.661L738.75,246.42a10.928,10.928,0,0,0,1.39-5.479,11.6,11.6,0,0,0-6.052-10.141h0" transform="translate(-119.441 -42.062)"/>
    <path id="Path_1219" data-name="Path 1219" class="cls-6" d="M22.65,228.2l.082-.082c.572-.327,2.7-1.472,3.271-1.8l13.821-7.524c.327-.164.572-.327.9-.491a8.619,8.619,0,0,1,.9-.572,9.956,9.956,0,0,1,13.493,3.925l7.524,13.821a9.936,9.936,0,0,1-3.925,13.493,9.589,9.589,0,0,0-.9.409,8.918,8.918,0,0,1-.9.491l-6.706,3.68L70.654,291l6.706-3.68a4.886,4.886,0,0,1,.9-.491,8.625,8.625,0,0,1,.9-.572,9.956,9.956,0,0,1,13.493,3.925L100.176,304A9.936,9.936,0,0,1,96.251,317.5a7.962,7.962,0,0,1-.9.409,8.615,8.615,0,0,1-.9.572L80.631,326c-.572.327-2.7,1.472-3.271,1.8l-.082.082a11.546,11.546,0,0,1-15.7-4.58L17.989,243.9a11.594,11.594,0,0,1,4.661-15.7" transform="translate(-3.023 -39.457)"/>
    <path id="Path_1220" data-name="Path 1220" class="cls-13" d="M51.565.566a5.041,5.041,0,0,1,6.788,1.963,4.954,4.954,0,0,1-2.126,6.706l-9.568,5.152a5.041,5.041,0,0,1-6.788-1.963A4.954,4.954,0,0,1,42,5.718L51.565.566" transform="translate(-7.159)"/>
    <path id="Path_1221" data-name="Path 1221" class="cls-14" d="M141.314,28.257C121.2,5.032,90.365-12.3,43.425,11.983-27.8,48.947,8.587,120.34,14.8,136.941,53.647,108.809,164.62,64.076,164.62,64.076s63.3-25.27,57.163-40.153-34.592-8.587-80.47,4.334" transform="translate(0 -0.05)"/>
    <path id="Path_1222" data-name="Path 1222" class="cls-4" d="M12.5,125.977h0c2.944,8.423,3.189,7.687,4.661,11.449-1.063-2.617-2.78-6.542-4.661-11.449m130.928-97.4h0m-.082-.082h0m-.164-.164h0m-.082-.164h0m-.164-.082h0m-.082-.164h0m-.164-.164c.082,0,.082.082,0,0,.082.082.082,0,0,0m-.082-.164.082.082c-.082,0-.082,0-.082-.082m-.164-.082h0c.082.082.082,0,0,0m-.082-.164.082.082a.08.08,0,0,1-.082-.082m-.164-.082h0m-.082-.164.164.164-.164-.164m-.245-.327.245.245-.245-.245m-.491-.491.491.491-.491-.491M104.992,2.9h0c14.8,3.925,26.742,12.921,36.31,23.389C131.733,15.739,119.794,6.825,104.992,2.9" transform="translate(-2.278 -0.535)"/>
    <path id="Path_1223" data-name="Path 1223" class="cls-15" d="M104.884,2.9C146.264,51.967,2.579,97.436,12.393,125.977c1.963,4.907,3.68,8.832,4.661,11.449h0c38.763-28.132,149.737-72.865,149.737-72.865S224.363,41.5,224.363,26.534a6.53,6.53,0,0,0-.409-2.126c-2.535-6.052-8.75-8.587-18.4-8.587-13.9,0-35,5.316-62.07,13h0l-.082-.082h0l-.082-.082h0l-.082-.082V28.5l-.082-.082a.08.08,0,0,0-.082-.082l-.082-.082-.082-.082-.082-.082-.082-.082-.082-.082a.08.08,0,0,0-.082-.082h0l-.082-.082v-.082a.08.08,0,0,0-.082-.082v-.082l-.082-.082-.082-.082a.08.08,0,0,0-.082-.082h0l-.164-.164h0l-.245-.245h0l-.491-.491h0c-9.65-10.631-21.589-19.545-36.391-23.47" transform="translate(-2.17 -0.535)"/>
    <path id="Path_1224" data-name="Path 1224" class="cls-16" d="M55.842,0a5.384,5.384,0,0,0-2.453.572s5.152,3.762-4.089,13c.981-.572,2.044-1.145,3.108-1.717,2.044-1.063,4.089-2.044,6.133-3.026a5.323,5.323,0,0,0,2.208-4.089,4.536,4.536,0,0,0-.572-2.29A5.04,5.04,0,0,0,55.842,0" transform="translate(-8.983 -0.007)"/>
    <path id="Path_1225" data-name="Path 1225" class="cls-15" d="M58.359,11c-2.044.9-4.089,1.881-6.133,3.026-1.063.572-2.126,1.145-3.108,1.717a7.373,7.373,0,0,1-.818.736l9.568-5.152A1.711,1.711,0,0,1,58.359,11" transform="translate(-8.801 -2.011)"/>
    <path id="Path_1226" data-name="Path 1226" class="cls-5" d="M84.423,336.237h0m.245-.082c-.082,0-.164.082-.245.082.082,0,.164-.082.245-.082m-19.79-11.94c2.617,4.743,4.007,7.36,4.007,7.36l-4.007-7.36h0m35-25.924h0M91.293,293.3h0M57.6,261.9h0l20.445,37.455,6.706-3.68a4.884,4.884,0,0,1,.9-.491,8.62,8.62,0,0,1,.9-.572,10,10,0,0,1,4.743-1.227,9.764,9.764,0,0,0-4.743,1.227c-.327.164-.572.409-.9.572s-.572.327-.9.491l-6.706,3.68L57.6,261.9" transform="translate(-10.495 -47.728)"/>
    <path id="Path_1227" data-name="Path 1227" class="cls-12" d="M57.6,261.9s6.215,22.816,11.2,41.053a8.391,8.391,0,0,0,.327,1.145c.327,1.145.572,2.208.9,3.271,1.8,8.1,1.717,18.318-2.044,18.318a5.056,5.056,0,0,1-3.026-1.554l4.007,7.36h0a11.532,11.532,0,0,0,14.8,5.07,2.449,2.449,0,0,0,.654-.327h0c.082,0,.164-.082.245-.082h0l.082-.082c.572-.327,2.7-1.472,3.271-1.8l13.821-7.524a5.5,5.5,0,0,0,.9-.572,9.585,9.585,0,0,0,.9-.409,9.939,9.939,0,0,0,3.925-13.493l-7.524-13.821h0c0-.082-.082-.082-.082-.164h0a9.853,9.853,0,0,0-8.587-4.988h0a9.764,9.764,0,0,0-4.743,1.227c-.327.164-.572.409-.9.572s-.572.327-.9.491l-6.706,3.68L57.6,261.9" transform="translate(-10.495 -47.728)"/>
  </g>
</svg>
